{"hash":"609c449f7566d67d3cb4d8fe84a7a2641ad0f6e8","data":{"posts":{"totalCount":25,"pageInfo":{"totalPages":5,"currentPage":4,"isFirst":false,"isLast":false},"edges":[{"node":{"id":"73d5322e686a9eb198d0c3857460873f","title":"Associating templating file formats with html in Visual Studio Code","date":"15. December 2018","timeToRead":1,"description":"A simple solution, to an annoying problem.","cover_image":{"type":"image","mimeType":"image/jpeg","src":"/assets/static/pankaj-patel-u2Ru4QBXA5Q-unsplash.81b85c1.6dd20e8f288066823340e9b829c8afd1.jpg","size":{"width":770,"height":380},"sizes":"(max-width: 770px) 100vw, 770px","srcset":["/assets/static/pankaj-patel-u2Ru4QBXA5Q-unsplash.81b85c1.6dd20e8f288066823340e9b829c8afd1.jpg 770w"],"dataUri":"data:image/svg+xml,%3csvg fill='none' viewBox='0 0 770 380' xmlns='http://www.w3.org/2000/svg' xmlns:xlink='http://www.w3.org/1999/xlink'%3e%3cdefs%3e%3cfilter id='__svg-blur-b45f353ccd384150b26df9b0b0258ea8'%3e%3cfeGaussianBlur in='SourceGraphic' stdDeviation='10'/%3e%3c/filter%3e%3c/defs%3e%3cimage x='0' y='0' filter='url(%23__svg-blur-b45f353ccd384150b26df9b0b0258ea8)' width='770' height='380' xlink:href='data:image/jpeg%3bbase64%2c/9j/2wBDAAYEBQYFBAYGBQYHBwYIChAKCgkJChQODwwQFxQYGBcUFhYaHSUfGhsjHBYWICwgIyYnKSopGR8tMC0oMCUoKSj/2wBDAQcHBwoIChMKChMoGhYaKCgoKCgoKCgoKCgoKCgoKCgoKCgoKCgoKCgoKCgoKCgoKCgoKCgoKCgoKCgoKCgoKCj/wAARCAAgAEADASIAAhEBAxEB/8QAGwABAQEAAgMAAAAAAAAAAAAABQQDAAECBgj/xAAyEAACAQMCAwUGBgMAAAAAAAABAhEAAwQSIQUxQRMiMlHBI2FxobHwJENSU3KBkbLC/8QAGQEAAgMBAAAAAAAAAAAAAAAAAQIAAwQF/8QAIhEAAgICAQMFAAAAAAAAAAAAAAECEQMhIgQSMUGRobHw/9oADAMBAAIRAxEAPwD5aprgz9ljtpCnWe9ImPuaF6Upw9Sth2UBidoBgijHbEyOo2he5kXCrLZuWEuTBnaB5ipkyrw27bh5CyoBUr6VjdL3J/CIyEA%2bITtz3mpteOSPYOu%2b8XZ%2bopJLk0WRfFMTW%2b7KS1jhtye%2bfagH6/Ko8nh93tNSYyop5Kl0P6zUradR0g6ek868dI8h/iir9SNprXkqsIlluxzFFtHaO/yDdJ8ufOtALWLee1ZzcQKfEXs9qs%2b46Tt8Ku4Jmvj4rWrSIzdoHYOispWIjdTHnNcfPtOy3cnhSErIchECnnGwUDqKLEW5bl%2b%2bz1hCkAMDPmDTPCNKhnUwVM8pnbrQi%2bIUzg%2byxCWVjqmAqz97U2NXITM6joRbHs5TKl3XEyQg3YxOw9BXVrhGK6y93LtGJ3sMR/rR75OO98k7rvu1kMPmQatwsnERgRdsp8Vv2vmjGqM7afGzT0yXbzq/YkPDmLMEycUwT4rugmP5AVovBc5wext2r0ftX7bf9VTi5HcbTkxIOwywObHo6%2bs9aUtB7wfuPeG/5GLkfQg0uTI4OlRZixKat2BcNW7YzWttqtkDS4mNvf8AZqh83KhlLsyN3TqtFpG/Wpsa4mPnM19lt6lJBI0gSPdMfCsDctTsyEz%2bgif7BrT4ObOClLua%2bD//2Q==' /%3e%3c/svg%3e"},"path":"/blog/2018/associating-templating-file-formats-with-html-in-visual-studio-code/","tags":[{"id":"Miscellaneous","title":"Miscellaneous","path":"/blog/tag/Miscellaneous/"}]}},{"node":{"id":"9cc675e9759b262ea13eeeb0dc89ef7a","title":"AdonisJS, a match made in heaven?","date":"8. December 2018","timeToRead":5,"description":"Discussing our challenge for December 2018...","cover_image":{"type":"image","mimeType":"image/jpeg","src":"/assets/static/nghia-le-V3DokM1NQcs-unsplash.81b85c1.af44664c29f490dbdb7d8a9edb6f35a0.jpg","size":{"width":770,"height":380},"sizes":"(max-width: 770px) 100vw, 770px","srcset":["/assets/static/nghia-le-V3DokM1NQcs-unsplash.81b85c1.af44664c29f490dbdb7d8a9edb6f35a0.jpg 770w"],"dataUri":"data:image/svg+xml,%3csvg fill='none' viewBox='0 0 770 380' xmlns='http://www.w3.org/2000/svg' xmlns:xlink='http://www.w3.org/1999/xlink'%3e%3cdefs%3e%3cfilter id='__svg-blur-bbb862f7733a6c0d9f3d1a01a772de5f'%3e%3cfeGaussianBlur in='SourceGraphic' stdDeviation='10'/%3e%3c/filter%3e%3c/defs%3e%3cimage x='0' y='0' filter='url(%23__svg-blur-bbb862f7733a6c0d9f3d1a01a772de5f)' width='770' height='380' xlink:href='data:image/jpeg%3bbase64%2c/9j/2wBDAAYEBQYFBAYGBQYHBwYIChAKCgkJChQODwwQFxQYGBcUFhYaHSUfGhsjHBYWICwgIyYnKSopGR8tMC0oMCUoKSj/2wBDAQcHBwoIChMKChMoGhYaKCgoKCgoKCgoKCgoKCgoKCgoKCgoKCgoKCgoKCgoKCgoKCgoKCgoKCgoKCgoKCgoKCj/wAARCAAgAEADASIAAhEBAxEB/8QAGQAAAgMBAAAAAAAAAAAAAAAABgcDBAUI/8QALxAAAgEDAwMBBgYDAAAAAAAAAQIDBAURAAYhEjFhQQcTFCJRUiMyQmKRoYGx0f/EABcBAAMBAAAAAAAAAAAAAAAAAAECAwT/xAAgEQACAgMAAQUAAAAAAAAAAAABAgADBBEhMRMUIjJR/9oADAMBAAIRAxEAPwBOW6pr%2bkEU7gZxkoca3qO410bBTHKo8Rk5/rRpY9oVE5/EZIkxwcZzo1otjYaMh%2bpCcM6%2bv0PjRbOVPJl1xmMCrF8UGRnVufvB58dtNfaE4jdGmiOcfbgazY9tNb5GWplaVD%2bRkOP5GrUdPDFIUt9YktRCF%2bIpuvqeLP6iB2Gst%2bejjUtXjsp3Git5po6bIVARxgDA1jXDccBQ9dLHI2PrjOg2pqatIgfdSsv7VOdYklVWV9QKemoK2aQckD5FUeSf9DWMX/p5KikDwIRXLctE0bK9tRCPX1OhGtvFDNL0LThSeBnsNb8W1auuggZuuKZF/FjIwjnP3Hkf40U2DbdvsydSxRyVLctK3JHgZ9ND36INgQmgxTDa1NR9bWq71qyYyvUwKqfPjV23y7sQrFBEKjjOVkGgzZe/5aWjWnraVZ5XcoSB1soHcNppWW8KnUXmhCL8wC44U6W1nTjDcpWFb68gXuq77thmaeGSFCI8yUNYnyjpH50YdifUE86C/Zvu28vuWtmo6aO4XevRQzSt7tQq9ycYH0/jTo3Rdaa4bfrzTkOwp5AGx%2b065y9lV2p6DcBkm%2bYvTuuBxjtjn68aVFFqN8ewO3puOzo22tuha2N7gbTJAF4p4FJySO7Ox9PA51b3JuaosojWFqV3YZcIAMf90sbPNWX25TLHW%2b4iXJLu3GPpqC6zWeODoasnlqeohnXgd/OgtAB0Yxs2NiHI9pHvBiVgh8agqPaSyTvGXSRCMqyjtpWQ2t6igkq55DDCz4iJPJUd%2bNQUNtiqq7oM0hjGM9BA/s9tUOPUd7ii15//2Q==' /%3e%3c/svg%3e"},"path":"/blog/2018/adonis-js-a-match-made-in-heaven/","tags":[{"id":"AdonisJs","title":"AdonisJs","path":"/blog/tag/AdonisJs/"}]}},{"node":{"id":"d90546d124656c0e2182ab968dde6887","title":"The best thing since []bread?","date":"25. November 2018","timeToRead":10,"description":"Our monthly challenge for November 2018 is complete...","cover_image":{"type":"image","mimeType":"image/jpeg","src":"/assets/static/jude-infantini-rYOqbTcGp1c-unsplash.81b85c1.03421d69d9348631a4b7bf6b0c47eec5.jpg","size":{"width":770,"height":380},"sizes":"(max-width: 770px) 100vw, 770px","srcset":["/assets/static/jude-infantini-rYOqbTcGp1c-unsplash.81b85c1.03421d69d9348631a4b7bf6b0c47eec5.jpg 770w"],"dataUri":"data:image/svg+xml,%3csvg fill='none' viewBox='0 0 770 380' xmlns='http://www.w3.org/2000/svg' xmlns:xlink='http://www.w3.org/1999/xlink'%3e%3cdefs%3e%3cfilter id='__svg-blur-5116b5a3863ba841a12fa6ae8e0f506d'%3e%3cfeGaussianBlur in='SourceGraphic' stdDeviation='10'/%3e%3c/filter%3e%3c/defs%3e%3cimage x='0' y='0' filter='url(%23__svg-blur-5116b5a3863ba841a12fa6ae8e0f506d)' width='770' height='380' xlink:href='data:image/jpeg%3bbase64%2c/9j/2wBDAAYEBQYFBAYGBQYHBwYIChAKCgkJChQODwwQFxQYGBcUFhYaHSUfGhsjHBYWICwgIyYnKSopGR8tMC0oMCUoKSj/2wBDAQcHBwoIChMKChMoGhYaKCgoKCgoKCgoKCgoKCgoKCgoKCgoKCgoKCgoKCgoKCgoKCgoKCgoKCgoKCgoKCgoKCj/wAARCAAgAEADASIAAhEBAxEB/8QAGwAAAQUBAQAAAAAAAAAAAAAABQEDBAYHAgj/xAAxEAACAQMDAwIFAAsAAAAAAAABAgMEBREAEiEGMUETIhRRYZGSBxUkQ2JxobHR8PH/xAAYAQADAQEAAAAAAAAAAAAAAAACAwQGAf/EAB4RAAIDAAMAAwAAAAAAAAAAAAECAAMRBCExQVFh/9oADAMBAAIRAxEAPwD0cdIdN/EQn97H%2bQ0NvFcI4tsM2zHLOrL%2bOTwM64zqo0w1rZjghNpY4uZJEQfxMBrkTxMcCWMn5BhrO0qFr62WeselLiINCoLSHk4Jw3Abkdh50nVckNHZLu9TKuz4V1Uemchip29udJHI3wSg8UD0zR8g9iDpDrz/AHG/19orbdHQ3N6iFKJ5QrlgQxeIbSfmMnB0Q6d/TJI3xFdeIs0DTvAiRAbk2gYIJxnOec/PRLeD6IDUEeGbcdcnQLpvqq13%2b1pXUk6xRklSkzKrKfvop8dSkZFVT4%2bfqr/nTwwI0RJUjoiUG40UlKsNLR1AhiAAyi8kZ8HxqN1NclFtkhoWEixrt3FgAzE47/TvnTVVM5hZROnbg6od4udyt8ENOlN68cAJR1PkD2%2b0f7xrOsxJxJpDXg1viGqm8zUltZnnKlSqFovdwCPOM%2bRgeeONAepOpJbnbZaZpz6cw2iLPvwcBc9sHJ50AqOoVgtMUVVVSGb1VBLDawABOcYHnjP10GHUNuqBESGg2KDhgSQV7DOOfGnVrYPuS2Mn5Jl8uDLd6mQuH9IKvu5zlyxz%2bI/pqsVE0httDQooEsx35z5dtx/lxt1GrbmZ5ZhteRXYe4Dvx/376YZ6ued5Iqd9zDaDg%2b0fTVyIQO5C7Bj1LDTXZf1uVjb9gpI1BfGRtXuxHnJz9xq1W6qt1fRRTTUkcEsgJ2pkbeeO3nHOs6jp7pNTfCQUpSIkM4UcufBYnv8A21ZrBbLnDgzqyL9edLtVQN2P47PuYcn/2Q==' /%3e%3c/svg%3e"},"path":"/blog/2018/the-best-thing-since-bread/","tags":[{"id":"Go","title":"Go","path":"/blog/tag/Go/"}]}},{"node":{"id":"e724a837e296e1f80a053e206899fb33","title":"A Bizarre Hack Manchester 2018!","date":"30. October 2018","timeToRead":13,"description":"Coffee, ribs, steak and then more coffee...","cover_image":{"type":"image","mimeType":"image/jpeg","src":"/assets/static/lala-azizli-tfNyTfJpKvc-unsplash.81b85c1.055bcf0489f59d712c74bd3295fe8fb5.jpg","size":{"width":770,"height":380},"sizes":"(max-width: 770px) 100vw, 770px","srcset":["/assets/static/lala-azizli-tfNyTfJpKvc-unsplash.81b85c1.055bcf0489f59d712c74bd3295fe8fb5.jpg 770w"],"dataUri":"data:image/svg+xml,%3csvg fill='none' viewBox='0 0 770 380' xmlns='http://www.w3.org/2000/svg' xmlns:xlink='http://www.w3.org/1999/xlink'%3e%3cdefs%3e%3cfilter id='__svg-blur-b459a3e26ced5eadc76ba30052d4a691'%3e%3cfeGaussianBlur in='SourceGraphic' stdDeviation='10'/%3e%3c/filter%3e%3c/defs%3e%3cimage x='0' y='0' filter='url(%23__svg-blur-b459a3e26ced5eadc76ba30052d4a691)' width='770' height='380' xlink:href='data:image/jpeg%3bbase64%2c/9j/2wBDAAYEBQYFBAYGBQYHBwYIChAKCgkJChQODwwQFxQYGBcUFhYaHSUfGhsjHBYWICwgIyYnKSopGR8tMC0oMCUoKSj/2wBDAQcHBwoIChMKChMoGhYaKCgoKCgoKCgoKCgoKCgoKCgoKCgoKCgoKCgoKCgoKCgoKCgoKCgoKCgoKCgoKCgoKCj/wAARCAAgAEADASIAAhEBAxEB/8QAGgAAAgMBAQAAAAAAAAAAAAAABAUDBgcBCP/EADAQAAIBAwIEBQIFBQAAAAAAAAECAwQFEQAhBhIxQRMUIlFhcYEHI5GhwRUkMrHR/8QAFwEBAQEBAAAAAAAAAAAAAAAABAIDBf/EACERAAICAgIBBQAAAAAAAAAAAAECABEhMQMSBBMiQcHx/9oADAMBAAIRAxEAPwCr2GlK8X2J%2bn9yV/WJv%2ba2BafYbgn5OdYvwPab7VcSW%2b6B5BReYLLLIMo2G5WUDsQMj41vQVT6sY9tFcEUBE8Z2TEU1KB21NZbW1wrUp1ZEJBOXOBtobjG5vZrNJWRU7TyB1QIoJ3J64GhuAb/AC3Cn87U0j08kchjKupUPsNx8b6gdRltTQ2cLudq5PLVrxF8mM8vJkANn5PtoWWSVZPD8aQs2cHYAYzt009mhWWR5DGvM5ycjOgFQiKQr6gck8w5R99tF5gyG7wbjOJlI1kQmkjZ6dhzOrNlQ%2bcn4Om1LDgDck%2b%2bqhauMLI9ZFQpV/mM3KrlMIST0B/nV7p1GBpC2IYkHImYcCcdecrbXY7lQUqxtJ%2bU8KiMKwGQSvTr7Y66uPHVzq7FSxVtDTxzUbbSbElD2Ox/xP8AvXnjx3hrKSWFisqEsjDsRgg/tre7de6WK0QPWtGbbVw80yTSekFhllwe2Sdu2um6Lepz0c9d1IrLxlbq7hl3rlennqfEi8ZIuYIegxnIzjfTjh0W2gtdRLVVJnjqpRKkzpgx%2bgKoXHtyj9dVoWHheOzxUMlwn8kJDURcrYOWG%2b4O4xjH86bPVWayWq2NQG5TQvKYYyZCy79c57DH76H092sfUV6gC7/YVPTP/TI5o38RTnkbnYcxHv30qqKKSW0VfKzmYqwIRmxv2G/sddt93jp66onqFeWGViyo3VMn69gMaIob3RUstQ/LPIsrApGUXCAE7e566z5OJGFVdalJ5DKbvHzMltvB1VUW243SeUU9PTSrChkIUOx3O%2be2331rH4a19dU2PkuLrKY2xFNnJkT3P06aS/iRV0r2SCnA8rS5adIolBVn2JZz99Q8CVTUdRSpKQsUnpHqBG/0OOuNQxYZM0QKcCf/2Q==' /%3e%3c/svg%3e"},"path":"/blog/2018/a-bizarre-hack-manchester-2018/","tags":[{"id":"Miscellaneous","title":"Miscellaneous","path":"/blog/tag/Miscellaneous/"}]}},{"node":{"id":"18b015ab41215c48736afc180e12b564","title":"Deploying a .NET Core Application to a $5 DigitalOcean droplet using Dokku","date":"13. May 2018","timeToRead":8,"description":"Oceans, docks, whales & five dollars.","cover_image":{"type":"image","mimeType":"image/jpeg","src":"/assets/static/neonbrand-4N3iHYmqy_E-unsplash.81b85c1.efbafd6c002022a7003caf2947bd6e3d.jpg","size":{"width":770,"height":380},"sizes":"(max-width: 770px) 100vw, 770px","srcset":["/assets/static/neonbrand-4N3iHYmqy_E-unsplash.81b85c1.efbafd6c002022a7003caf2947bd6e3d.jpg 770w"],"dataUri":"data:image/svg+xml,%3csvg fill='none' viewBox='0 0 770 380' xmlns='http://www.w3.org/2000/svg' xmlns:xlink='http://www.w3.org/1999/xlink'%3e%3cdefs%3e%3cfilter id='__svg-blur-22756419f844dbc1f9f967a7332f9e13'%3e%3cfeGaussianBlur in='SourceGraphic' stdDeviation='10'/%3e%3c/filter%3e%3c/defs%3e%3cimage x='0' y='0' filter='url(%23__svg-blur-22756419f844dbc1f9f967a7332f9e13)' width='770' height='380' xlink:href='data:image/jpeg%3bbase64%2c/9j/2wBDAAYEBQYFBAYGBQYHBwYIChAKCgkJChQODwwQFxQYGBcUFhYaHSUfGhsjHBYWICwgIyYnKSopGR8tMC0oMCUoKSj/2wBDAQcHBwoIChMKChMoGhYaKCgoKCgoKCgoKCgoKCgoKCgoKCgoKCgoKCgoKCgoKCgoKCgoKCgoKCgoKCgoKCgoKCj/wAARCAAgAEADASIAAhEBAxEB/8QAGwAAAgIDAQAAAAAAAAAAAAAABAYDBQECBwj/xAAwEAACAQMDAgMECwAAAAAAAAABAgMABBEFBiESMQcTYRQkQVEVFiIjQnFygZGhsf/EABcBAQEBAQAAAAAAAAAAAAAAAAIBAwD/xAAaEQADAQADAAAAAAAAAAAAAAAAAQIREiFx/9oADAMBAAIRAxEAPwDicYoyJM0GjUVE/FJkGraW1r/cUsvsXkpBBgzTSvgRg55x3PY9qa/qSLRkU7g0Ys4DKGdkLA9iMirvweiij2ZqFzGi%2bdI8iMwzlukcD8hmne%2b%2bjdK09bm%2bjZUOMYCuWJGT3HAHNYuu3ovDnsGgT2ah5NU0fo%2bZuwv%2biiJoJLa2lnknsHSNSx8u8jJI9Bnk%2blY3j4jaBZM%2bmw2M1wcqHmWGMdI/Eozz1Y4z6%2blLF7u/burWT2elaZeWdxIoQdTho8ZBPGTjt8K5rJ0UraSJdVnWWPqXGCMiknUuSauJ7o%2bWFJ7DFUV7J1E0oBSKBWqdHoRTUqnFbEO6eEd0I9mXEfUAWln7/oFPk%2bp6be2sMVzcQNC6gx5AwxAGSp6gT%2b3zrzPo%2b4NT0lWSwuAsbEkxuoZckYPB%2bdGRbq1ONlKrp4KjC%2b5p9kenHFY8HrZdG7eGwYGu7i8stbs1tmkJSGSNzJluekBc55qgt9rT6TPHdyXljPEG5EDliO4GeMc57d6xHvXWVIIOn5ByPck4P8Vpfbw1e9tJLad7MROQfu7ZVIIPBB%2bFc1TlyOaSpUCXs5WaVD3ViP7qrnlyTWk0zMxZiSxOST8TQzvmnM4Cnr0//9k=' /%3e%3c/svg%3e"},"path":"/blog/2018/deploying-a-net-core-application-to-a-5-digital-ocean-droplet-using-dokku/","tags":[{"id":".NET Core","title":".NET Core","path":"/blog/tag/.NET%20Core/"},{"id":"DigitalOcean","title":"DigitalOcean","path":"/blog/tag/DigitalOcean/"}]}}]}},"context":{}}