{"hash":"609c449f7566d67d3cb4d8fe84a7a2641ad0f6e8","data":{"posts":{"totalCount":25,"pageInfo":{"totalPages":5,"currentPage":2,"isFirst":false,"isLast":false},"edges":[{"node":{"id":"cb4c054b5d118708e8ff2f273a9fb886","title":"Easily test your Vuex store using Vue Test Utils.","date":"1. August 2020","timeToRead":5,"description":"Tired of brittle tests by testing your Vuex actions, mutations and getters all separately? Vue Test Utils has the solution!","cover_image":{"type":"image","mimeType":"image/jpeg","src":"/assets/static/national-cancer-institute-DYQfoftWGXw-unsplash.81b85c1.49ce25fa62dd4a1433296cd92961a3b6.jpg","size":{"width":770,"height":380},"sizes":"(max-width: 770px) 100vw, 770px","srcset":["/assets/static/national-cancer-institute-DYQfoftWGXw-unsplash.81b85c1.49ce25fa62dd4a1433296cd92961a3b6.jpg 770w"],"dataUri":"data:image/svg+xml,%3csvg fill='none' viewBox='0 0 770 380' xmlns='http://www.w3.org/2000/svg' xmlns:xlink='http://www.w3.org/1999/xlink'%3e%3cdefs%3e%3cfilter id='__svg-blur-220db99fc62009524bf963abae801673'%3e%3cfeGaussianBlur in='SourceGraphic' stdDeviation='10'/%3e%3c/filter%3e%3c/defs%3e%3cimage x='0' y='0' filter='url(%23__svg-blur-220db99fc62009524bf963abae801673)' width='770' height='380' xlink:href='data:image/jpeg%3bbase64%2c/9j/2wBDAAYEBQYFBAYGBQYHBwYIChAKCgkJChQODwwQFxQYGBcUFhYaHSUfGhsjHBYWICwgIyYnKSopGR8tMC0oMCUoKSj/2wBDAQcHBwoIChMKChMoGhYaKCgoKCgoKCgoKCgoKCgoKCgoKCgoKCgoKCgoKCgoKCgoKCgoKCgoKCgoKCgoKCgoKCj/wAARCAAgAEADASIAAhEBAxEB/8QAGgAAAgMBAQAAAAAAAAAAAAAABAYDBQcIAv/EADAQAAIBAwMCAwgBBQEAAAAAAAECAwQFEQAGIRIxExRBByIjMlFhcZGBFiQzQsHR/8QAGQEAAwADAAAAAAAAAAAAAAAAAwQFAQIG/8QAJBEAAgIBAwMFAQAAAAAAAAAAAQIAAxEEEiExUXEFIiQyQWH/2gAMAwEAAhEDEQA/AKe17yvFLRU893qGr54G8NGBETMuGbHujBPzHJH50wUm567cFjpJqeirKlbi/Qs0iq/gjOAp6eF9Tn1A0gW250sVC0dcC8jOWVF93/QqeT9m1DBvG6bZo5orU5a2yYHl2GFUjABX6EAdvtow9PtNZuxx1HiYGqrDhCZoO4KCls9FM1PTQrUTDHxj1HGccj6aFrbfW3yxW2aqpmuFSuYI6aVypKgHOD6cADP2GhdrXqu3BILgts84REQVaqSIwMrYPzKc88/jVpL7Ta3zWTYpss/SzgdQjVQAzEnpwOe4HGOdIOC52iNMVH1k8OyLrd7U1HNSMiQ04UUpqjG0LFshmbnJC4AQDH1OnSSqs%2b09v0tprp6elqYqKFWibq91R3LMBjlieRrJtxe0zdEn97t/i3VZBQxyeKQRwfQYGR9NIe4q2%2bVFaa28iR6yV2D%2bKmGBz27cLx24A0RPaAIEkEzdp/aBY6fw6WK80NSrL0xdfVGgwuSDIQB9h66sbWBujccFwRlltdvaLwjHVqYRKoyXBJyxHV0/xrmZ3qEmjeSlyV5UhgyjPHY8aPFf0sFqbSs3HPhL0sB%2bMEaZDHHSCPMHmD%2bcqIXOJEkZSv1wdRTl4IJUqV8SB%2bcZ7H/mh7uWgvlUDISevJcnPv45/Z14lqVqp4o6hnkRULFc4wT%2bPXXQJbvpXvgSS1e2w9ofs7cVxtE1VHa44paiqHSTKT7uDgHPYHnueONO15q6mFKGyAUYrn%2bGxp/hIHZs5B9RyOfXGdZya/rVKS3RdBlP%2bNAMt/7ron2cV9mp7BZbbI8z390HmjTpHMqkEjLPgnIXp4zgds6nr8VjZUu44x4lSixipJGIDf8AZts21tdLgDL52lpli6jITEpPzt04zyzE/rVDcoKiqpKy/wB0qXFy6RHFFC69Majp%2bdQCpB6g3GeD%2btK3cIoduXIVNXNKrRmNGkgV%2blsfMBgZPOAD3OO2srA/pyKlhuM4kQ1ElUssbrh1aIRqWI7E4PB7EevfUeyonluCYWqxGcHqF5x3/kqJdq7lvNWghtHxoJCrrTlIS6jDds4zg8fxphh2rRT1ASCvmoLh8nl7pB0N3%2bUE4z/BOnf2PXR7rVVb1AWSWCnhPilcEmVQcZzyQBj9aZ7nTQbhv1db51SWGlhj6kkAZMsSexHfAGtqGZMhueYzq7hqCCFCgD885n//2Q==' /%3e%3c/svg%3e"},"path":"/blog/2020/easily-test-your-vuex-store-using-vue-test-utils/","tags":[{"id":"Vue.js","title":"Vue.js","path":"/blog/tag/Vue.js/"},{"id":"Testing","title":"Testing","path":"/blog/tag/Testing/"}]}},{"node":{"id":"6ba5066f65ee88e8b6726c79cd77e42b","title":"A common enemy to software developers.","date":"6. June 2020","timeToRead":10,"description":"Fear of missing out & imposter syndrome are two serious problems that many software developers have to deal with. Trust me, you're not alone... & trust me, you're also fantastic at what you do, regardless what you might think.","cover_image":{"type":"image","mimeType":"image/jpeg","src":"/assets/static/chaozzy-lin-SlHFrXTlCc8-unsplash.81b85c1.54d3bc5e408520e33f4c7ed1566a33f4.jpg","size":{"width":770,"height":380},"sizes":"(max-width: 770px) 100vw, 770px","srcset":["/assets/static/chaozzy-lin-SlHFrXTlCc8-unsplash.81b85c1.54d3bc5e408520e33f4c7ed1566a33f4.jpg 770w"],"dataUri":"data:image/svg+xml,%3csvg fill='none' viewBox='0 0 770 380' xmlns='http://www.w3.org/2000/svg' xmlns:xlink='http://www.w3.org/1999/xlink'%3e%3cdefs%3e%3cfilter id='__svg-blur-7dd314a2f6625863d7791b157f46f4b0'%3e%3cfeGaussianBlur in='SourceGraphic' stdDeviation='10'/%3e%3c/filter%3e%3c/defs%3e%3cimage x='0' y='0' filter='url(%23__svg-blur-7dd314a2f6625863d7791b157f46f4b0)' width='770' height='380' xlink:href='data:image/jpeg%3bbase64%2c/9j/2wBDAAYEBQYFBAYGBQYHBwYIChAKCgkJChQODwwQFxQYGBcUFhYaHSUfGhsjHBYWICwgIyYnKSopGR8tMC0oMCUoKSj/2wBDAQcHBwoIChMKChMoGhYaKCgoKCgoKCgoKCgoKCgoKCgoKCgoKCgoKCgoKCgoKCgoKCgoKCgoKCgoKCgoKCgoKCj/wAARCAAgAEADASIAAhEBAxEB/8QAGgAAAwADAQAAAAAAAAAAAAAABAUGAQcIA//EAC0QAAIBBAAFAwMDBQAAAAAAAAECAwAEBREHEhMhMQYiUUFhcRQVJEJSgaHB/8QAFgEBAQEAAAAAAAAAAAAAAAAAAgAB/8QAHREAAwACAgMAAAAAAAAAAAAAAAERAjEDEiEiQf/aAAwDAQACEQMRAD8A0lZvqL77r0QBp%2bx2x80AX5Yh09gUThFL3hZjsBSamiegjLEwYq4k/tXYqTw2LnyU6SvHIbXqBZptEKgJ7lm1ofmrL1CA%2bHuFH9S6qh4VYSXL%2bjh%2bg9TW%2bKmSd%2brHJb9TY%2bD3Hmlx41%2bTFox684VY7B4L90s7xOhoaLXAcSbHbk0Pdvz2%2blahMU1ldR86uhJ7bBGxXZcvDW2uuHlpFBkVsLq1ZnF6IFZV2fceQ9hv89vvXPHGvEQ4S/xVmuZOVnSElpRAsQA327Ck5k3PgsV60m7aT%2bHGoBPubx%2baYPcIsYD/AB4pLYyt0I9fXdFzEFiQCdfNCFTDPpVUtoao3DOBJMVbftA/3S9uXWzomiMa3IXOxskVMI2ybc%2bKlH4pfwvykmOz/JD0mkffKkyF1Yj7Aj3fUf5rOTvoo8ZKryKJGPtX6mo62kkhuI5YX6ciMGVt60R3Fbi%2brpLR0b6Ous9a%2boS1nmmkuLPmuJbOa3nkgjR98hVSV8d/LHezWkeIGQfI%2brMlcSsjSvM3MY0CKDvwFBIAHwCe%2b%2b5pzacUM1bTZGeFYEur6zjs5JdH2qvNplHz7qgySTskk1rargqO7JtQxD7f9oiUA%2bG2T570DZyBkjUHuPNEsq7OiKJh/9k=' /%3e%3c/svg%3e"},"path":"/blog/2020/a-common-enemy-to-software-developers/","tags":[{"id":"Miscellaneous","title":"Miscellaneous","path":"/blog/tag/Miscellaneous/"}]}},{"node":{"id":"f0795d5d14edbe02b3ebd48580415897","title":"Tips for learning a new code base.","date":"18. May 2020","timeToRead":6,"description":"Need to quickly learn a new code base or upskill in some technologies? Here are my tips.","cover_image":{"type":"image","mimeType":"image/jpeg","src":"/assets/static/wes-hicks-4-EeTnaC1S4-unsplash.81b85c1.c3f103f670692e32581616f97ac74ab2.jpg","size":{"width":770,"height":380},"sizes":"(max-width: 770px) 100vw, 770px","srcset":["/assets/static/wes-hicks-4-EeTnaC1S4-unsplash.81b85c1.c3f103f670692e32581616f97ac74ab2.jpg 770w"],"dataUri":"data:image/svg+xml,%3csvg fill='none' viewBox='0 0 770 380' xmlns='http://www.w3.org/2000/svg' xmlns:xlink='http://www.w3.org/1999/xlink'%3e%3cdefs%3e%3cfilter id='__svg-blur-f625d4423dc05396f910f6506a1eec11'%3e%3cfeGaussianBlur in='SourceGraphic' stdDeviation='10'/%3e%3c/filter%3e%3c/defs%3e%3cimage x='0' y='0' filter='url(%23__svg-blur-f625d4423dc05396f910f6506a1eec11)' width='770' height='380' xlink:href='data:image/jpeg%3bbase64%2c/9j/2wBDAAYEBQYFBAYGBQYHBwYIChAKCgkJChQODwwQFxQYGBcUFhYaHSUfGhsjHBYWICwgIyYnKSopGR8tMC0oMCUoKSj/2wBDAQcHBwoIChMKChMoGhYaKCgoKCgoKCgoKCgoKCgoKCgoKCgoKCgoKCgoKCgoKCgoKCgoKCgoKCgoKCgoKCgoKCj/wAARCAAgAEADASIAAhEBAxEB/8QAGQAAAwEBAQAAAAAAAAAAAAAABQYHAwQI/8QALxAAAQMCBQIGAQMFAAAAAAAAAQIDBAURAAYSITEHEyJBUWFxkRQVMoEjUmKxwf/EABkBAAIDAQAAAAAAAAAAAAAAAAMFAAIEAf/EAB4RAAICAgIDAAAAAAAAAAAAAAECAAMRMSFBEhMU/9oADAMBAAIRAxEAPwAZT6fdI2x01qmiRSH4cdxj855OhlhbgSXVf2W534wudTKxLolOiRIDimJErUpTqdlJQNrD0JJ59sSim1WXS61FqTDh/LjuB1KydyR6n34/nBn4yBuY6lzgnUteT%2blXZoEipZiprr1SW4pLUFK0iw4Cj6kncb4kGdoEWiZlm0%2bB3yiOQ04F7FKx%2b4X9jj0V0tr8zOMuWXQy7TGG0OoKXCFJcUT4FD2AJ%2bbYmvWTJkGFmSO/AKWm5rbrr69S3EF5Kt7E73Vq%2b74XpYwJZ41epWUKkj6UJI1KUhI9ANRxslKVNksNFVuSvn6wWl0dcFnW6kOtBWmzat/rBCjRFO0mRPjQAtmOqzpV4xxwT5YN71xmZ/naDqJSJMiS06tpoICr6SSCr2%2bMMc2nOtManERm2hyopJCfS5ONqRGqinKfKYbcDD6ilxlsFOhP%2bR3524w0nojnKXCDz8yK608kOuNiSf6qBunwkcjf72xcFjoQRCjZiZmajyV1il0%2bE5KmSZTR0Ife1q1FRASCdhxjKpdNszxG0KegoDy1BLbSX0qWsnyABOADlQcYkRJMZZQ/HKVoV6KBuP8AWPQVAzY3mGkxqwwgJeZbWh9N7hlWxP3bb2OAWWWVqO5pqqrtYjUwkRE9PujsymR5CW6nLQEvPINrvOEJ2PNkpuB8YIUtyGjJFNgLpoqShEWku6Astr0buEHfc/zfEmzpW6jmaQYkFlbrDS9a3Fq0o1328R22F/vD505lOfqNOp/5DannyEKSyrudsDxK8VrWsnnEVHKg9mWd0BIB4EoeUMtU6JlSB3mI816Q2H3JD0cBTmoC1woXHhtt84zrMakUilTX1w4jMRCCt5KGUpSoAeYA3vxhwfcTqB0gpB/b5W9ML9aDVSdkflHQ2tVylFgPix8sMErCr4gRW9pZskyRNZ8pcmc0XkkwoscI0RD21aiNte1uRbFXk5vptQyhHRHzG1Snezo199AcFthzwDbAN%2bmUhAIGv3s0k3xxVBVOEft9smybXLCD/wBxUVns5nTYuwMGf//Z' /%3e%3c/svg%3e"},"path":"/blog/2020/tips-for-learning-a-new-code-base/","tags":[{"id":"Miscellaneous","title":"Miscellaneous","path":"/blog/tag/Miscellaneous/"}]}},{"node":{"id":"98d9b91c4a1c0eceff72fc0e27c6f3bb","title":"Creating & deploying a .NET Core Web API to AWS with the Serverless Framework.","date":"5. July 2019","timeToRead":13,"description":"Lambda functions are nice... but sometimes you just want a whole API!","cover_image":{"type":"image","mimeType":"image/jpeg","src":"/assets/static/taylor-vick-M5tzZtFCOfs-unsplash.81b85c1.0569080ee39d75959ccf93464efc21f1.jpg","size":{"width":770,"height":380},"sizes":"(max-width: 770px) 100vw, 770px","srcset":["/assets/static/taylor-vick-M5tzZtFCOfs-unsplash.81b85c1.0569080ee39d75959ccf93464efc21f1.jpg 770w"],"dataUri":"data:image/svg+xml,%3csvg fill='none' viewBox='0 0 770 380' xmlns='http://www.w3.org/2000/svg' xmlns:xlink='http://www.w3.org/1999/xlink'%3e%3cdefs%3e%3cfilter id='__svg-blur-f60050b603281ec2f42a0f2984623ae8'%3e%3cfeGaussianBlur in='SourceGraphic' stdDeviation='10'/%3e%3c/filter%3e%3c/defs%3e%3cimage x='0' y='0' filter='url(%23__svg-blur-f60050b603281ec2f42a0f2984623ae8)' width='770' height='380' xlink:href='data:image/jpeg%3bbase64%2c/9j/2wBDAAYEBQYFBAYGBQYHBwYIChAKCgkJChQODwwQFxQYGBcUFhYaHSUfGhsjHBYWICwgIyYnKSopGR8tMC0oMCUoKSj/2wBDAQcHBwoIChMKChMoGhYaKCgoKCgoKCgoKCgoKCgoKCgoKCgoKCgoKCgoKCgoKCgoKCgoKCgoKCgoKCgoKCgoKCj/wAARCAAgAEADASIAAhEBAxEB/8QAGwAAAgMBAQEAAAAAAAAAAAAAAgMABAUGAQf/xAAsEAACAQMDAgQFBQAAAAAAAAABAgMABBEFEiETMQZBUZEUMmFxoSIkgbHR/8QAFwEBAQEBAAAAAAAAAAAAAAAAAQIAA//EABgRAQEBAQEAAAAAAAAAAAAAAAABESEC/9oADAMBAAIRAxEAPwD47FiRlXcASfOtc2MQMM4kjljbuoPoFz%2bTWdpcCStEZCwXeSSo5wNv%2b1r6rIlvrSW6HC7EGT9VFRb1fmTOu20a%2b0e28PtbSyRwzkfId58sckDAp/iPUtLvNHZLOaF3jgYtnd2GexI78iuWZI49ElBSPqggExofRsAZ/Jqj4jaC10TT2iXbcSq284xx9amWcOrFtdWFvZS28g2ysoznkE48veqM3wr6ZEkZQyAMWYD5aVaOktoJJjGqFNm5mGQcHy9qGJrUaNvc7JSJMZXJPBA5oGzWOx2nFDvquZc%2b1D1K7INsLtoZIiORuwftxVnUrpm1fqMQWAUAkjHA4NY2a9kbLA/QUZ066Rp5JrRS3VZywBd/054PYelJ8SkL0AkrMpDHYwI28n%2bPas5LhRYsgZg%2b4cE9%2bDih1C466QjcG2ryPQ1MnWpsMyC0dRs3lfTBz96J7kJp0UfaTLdj/YqnC/7eRSeTgAetSWXdbxqcEgkmnOgrcam6gqVTP//Z' /%3e%3c/svg%3e"},"path":"/blog/2019/creating-and-deploying-a-net-core-web-api-to-aws-with-the-serverless-framework/","tags":[{"id":"AWS","title":"AWS","path":"/blog/tag/AWS/"},{"id":".NET Core","title":".NET Core","path":"/blog/tag/.NET%20Core/"}]}},{"node":{"id":"465724db965b5cae1efff274fb116506","title":"Running Entity Framework Core migrations from a separate solution that doesn't contain a Startup.cs file.","date":"25. May 2019","timeToRead":3,"description":"After an hour of tearing my hair out...","cover_image":{"type":"image","mimeType":"image/jpeg","src":"/assets/static/campaign-creators-IKHvOlZFCOg-unsplash.81b85c1.2b434c2735c3ca2606b41eba4d07664a.jpg","size":{"width":770,"height":380},"sizes":"(max-width: 770px) 100vw, 770px","srcset":["/assets/static/campaign-creators-IKHvOlZFCOg-unsplash.81b85c1.2b434c2735c3ca2606b41eba4d07664a.jpg 770w"],"dataUri":"data:image/svg+xml,%3csvg fill='none' viewBox='0 0 770 380' xmlns='http://www.w3.org/2000/svg' xmlns:xlink='http://www.w3.org/1999/xlink'%3e%3cdefs%3e%3cfilter id='__svg-blur-a1a7a38cb1c9e74f45604f0bcfef1500'%3e%3cfeGaussianBlur in='SourceGraphic' stdDeviation='10'/%3e%3c/filter%3e%3c/defs%3e%3cimage x='0' y='0' filter='url(%23__svg-blur-a1a7a38cb1c9e74f45604f0bcfef1500)' width='770' height='380' xlink:href='data:image/jpeg%3bbase64%2c/9j/2wBDAAYEBQYFBAYGBQYHBwYIChAKCgkJChQODwwQFxQYGBcUFhYaHSUfGhsjHBYWICwgIyYnKSopGR8tMC0oMCUoKSj/2wBDAQcHBwoIChMKChMoGhYaKCgoKCgoKCgoKCgoKCgoKCgoKCgoKCgoKCgoKCgoKCgoKCgoKCgoKCgoKCgoKCgoKCj/wAARCAAgAEADASIAAhEBAxEB/8QAGgAAAwEAAwAAAAAAAAAAAAAABAUGBwACA//EADEQAAICAQQBAgQDCAMAAAAAAAECAwQRAAUSITEGEyJBUXEUMmEHFSNCUnKRoYHB8P/EABgBAAMBAQAAAAAAAAAAAAAAAAMEBQYC/8QAJREAAgICAgECBwAAAAAAAAAAAQIAAwQREjFBcbEFISIyUYHB/9oADAMBAAIRAxEAPwDm7LNsEHqG3UpKla9KtieQqZEhnZDzZD5KNx8/ynOetR%2b%2beq7e6WHp0lhsRWSqOrxCV4zkAkADx9yf%2bNahtm5WKNixQvfimoiYqttZlEboXHFCcnigRj5yCfvjU5s3p2ls/qizve10r9eus7Q1RNw9qUMpBKxgZUAjrJ%2bn1xoFzKw2P3GqFas6bx1AttrRbK9bbhHK5MqhJAvAElsNy76z5wR8xqih24WZq5ieYRS2AAD8bFOPbEeQvI%2bT9PoRqK3%2bru0Yr2trsxH2bk0xZ2VSpOCe8ZByScHVZsB3aGpXWSZpP4eAzspCKQPGTknryf8AWusWu7XLkdQGZZjlirKCfPW4%2boxPt%2b0S7Y07WIGuZmBJPE5JIHjAHEePHnRladaUkNf3UmxHIIVKjOFY4XkB0uQeznyOzpbSiuB2e48M0aQexFCHIwvZI%2b567H0143l3KxHwetTZJG44a0/zJJz8Pk%2bB/T3js6fUHyZPbh0oEOu7Am6S/i57r17hPBlVBxcqSoCgnPePr/jSq3uienqN1a1axaauHkeYLiPA8kuD19MDXW3NcrTOq25a5UcOQ4ylx%2bYnwMEkkZ89DUF63v3blGSnfvWBHKis8MfFRJ1hS2B%2bnjrSF7UAkL90rYiZDAch9E0Tat2h3Es0cvt%2b1KaskYAAD8cKM/LJ44bHzxozerdeKpXS3JHJIGzwXCO798iCOjk4B/6Op31JYn9J%2boSasEMKW05t8RIEnIDljPeeiT10dIVW1uYcRRytJMpjDREMEyO2XPjGfufl50iSVBBjvENowz1jfRrO2wOgQWPctSgkEcS%2bAOQJyMrjOfGdOINzrw0hYsTpFCMZdj13rNPXEUFDfaVeB2eGCskCA/lymASPuxJ78aodrspYqpDYWOSIjtXAIOtBhENQFHcyvxBCuSznr5ewmn0aFqfi0qNBAVDh3H5lIyCB%2bo0PuM1eukoikncxYYl4WUN88qcd4xpn6QsTWdrDSO74PFSxzhR0B9hpP6g3rh6jO2xI4ZYfeLqfhBzgAg9ZPekrr7RaFX86lTGxqDQXbvW9wGWQT2ndx8LYOD/aNZh%2b0CUfv2UDPFVQf%2b/zq%2bNyNLckbv8AEWIXkck41l/r6xy320FA6Kj/AENTGG7z6/2WaDqgeg9p/9k=' /%3e%3c/svg%3e"},"path":"/blog/2019/running-entity-framework-core-migrations-from-a-separate-solution-that-doesn-t-contain-a-startup-cs-file/","tags":[{"id":".NET Core","title":".NET Core","path":"/blog/tag/.NET%20Core/"}]}}]}},"context":{}}