{"hash":"464cf9a22bcb0fc0812667758e4176a554f788ea","data":{"posts":{"totalCount":25,"pageInfo":{"totalPages":5,"currentPage":1,"isFirst":true,"isLast":false},"edges":[{"node":{"id":"e77d2de8975c694de58337acc0ab3253","title":"Book Summary: Growing Object-Oriented Software, Guided by Tests","date":"13. May 2021","timeToRead":14,"description":"I have finally gotten round to reading the famous GOOS book that has been around since 2009. Here is my summary.","cover_image":{"type":"image","mimeType":"image/jpeg","src":"/assets/static/joshua-lawrence-KlQE824pwxs-unsplash.81b85c1.da94bdd70d285bb1eb8bd89db902fa9e.jpg","size":{"width":770,"height":380},"sizes":"(max-width: 770px) 100vw, 770px","srcset":["/assets/static/joshua-lawrence-KlQE824pwxs-unsplash.81b85c1.da94bdd70d285bb1eb8bd89db902fa9e.jpg 770w"],"dataUri":"data:image/svg+xml,%3csvg fill='none' viewBox='0 0 770 380' xmlns='http://www.w3.org/2000/svg' xmlns:xlink='http://www.w3.org/1999/xlink'%3e%3cdefs%3e%3cfilter id='__svg-blur-fc016ddee175a1f0e68f7fa3ab5d121a'%3e%3cfeGaussianBlur in='SourceGraphic' stdDeviation='10'/%3e%3c/filter%3e%3c/defs%3e%3cimage x='0' y='0' filter='url(%23__svg-blur-fc016ddee175a1f0e68f7fa3ab5d121a)' width='770' height='380' xlink:href='data:image/jpeg%3bbase64%2c/9j/2wBDAAYEBQYFBAYGBQYHBwYIChAKCgkJChQODwwQFxQYGBcUFhYaHSUfGhsjHBYWICwgIyYnKSopGR8tMC0oMCUoKSj/2wBDAQcHBwoIChMKChMoGhYaKCgoKCgoKCgoKCgoKCgoKCgoKCgoKCgoKCgoKCgoKCgoKCgoKCgoKCgoKCgoKCgoKCj/wAARCAAgAEADASIAAhEBAxEB/8QAGgAAAwADAQAAAAAAAAAAAAAABAUGAgMHAP/EACkQAAIBAwMDAwUBAQAAAAAAAAECAwQFEQASIQYTMQdBYRQiMlGBcRX/xAAYAQADAQEAAAAAAAAAAAAAAAABAwUEBv/EACURAAICAQIFBQEAAAAAAAAAAAECABEDBPATITFRcQUSFBVBYf/aAAwDAQACEQMRAD8ASXL1M6pq0Tv0FMIIVQrCaZykQU5VwM8H5PnHxoaf1I6to3k7fcolIEjRxpKiL8gZ4zqFvcnUdHT0tVNcK56efMYkjndwduBtz48HxrGyUN9vVfJBTz1zkx71M7um4A4IJ555HGh/YKrkROz0V2u1UtRVS3avSaJhG1Uscqs6su77oy4YAbOOfn31m8F0kqKoDqSuMmHeVlikA%2bwLkYLkk4I170wtVZQ2W6UFbI0VUdql1YkruVsEE4/edUC2mvSKEC7sDCuFJQcfaQTySffJznka5/U67ImVkDVW%2bxlnBo0bGrFbvfcSBntslTMslR1Ge8wDEPFuJXOBll3D2PvxraLXB2JKp66ABgZO1GHDtgBmxuXzg55OreW2XMu7x3Km27mMINOpCqfAJ98fv58HRFVSTx9P3VKt4JS0crR9uIJtGw8fJz76V9g5Itr34jfhKByWt%2bZxyuu9vkp4%2bzXUzSRzRyOA%2bcKHGT/POp9plit14aikRgZEkEiHJwWOM88cePHnVevpNNJR1VTbhNVO4CoquoDI6K5YE48biP8ARoCo6QuCUc0Sx11UN7wTCnpyqII22qpC5BOQT/ddFjCr0MiZSXFVAbrFduob3T1d4qauKnjOVleFmCgH7UWNcYBOBxge%2bu3dG3JqpJZZrXTiSKUqGJUMp2qp4A4ztGgP%2bhULhe4Xb3OeP5rZHXuxG9XOOAC/A/msvveaiiH8htfV1FHd7hVx0azQ1IjYrHMqsmxNpGDwf350gvFyouqem5E7FzhppoxIs0QjyATwSN%2bSp4yDoy%2b1rwWyoKsygQucAcfidT3SlvolsNrka3UbuIELNJTht3HOcjnWY6PGz8Y2DccNS6pwh0qM7fV2y2tDNLV3%2bT6dCSkzF4hhcE7cnAAz78acP1TbK2hljp/qpCdyFRAfOMEefnUp1TZrZBaKmemo6YQTDtxPt2tC7EDYSMZ85B/X%2bEaUNRigkro4VxDHUMMbgCuQp5GfHPBHB0G9NxObJNwDX5UFACPKOsmjo6ennrRFPTxrEVbIAwoH5Aa0ytdEQ/S1FW0WS2YJ%2b4uT5OBkanpKtcE7gTodrg8b5jJDHwV4OqYWTyxuf//Z' /%3e%3c/svg%3e"},"path":"/blog/2021/book-summary-growing-object-oriented-software-guided-by-tests/","tags":[{"id":"Software Testing","title":"Software Testing","path":"/blog/tag/Software%20Testing/"},{"id":"Test Driven Development","title":"Test Driven Development","path":"/blog/tag/Test%20Driven%20Development/"}]}},{"node":{"id":"3f55b44b2814bffc07762debab522faa","title":"Five Minute Design Patterns #3: The Prototype Pattern","date":"2. January 2021","timeToRead":5,"description":"Another post in my blog post series where I try to cover all of the Gang of Four Design Patterns in five minutes each, once again we have one of the Creational Patterns... the Prototype Pattern!","cover_image":{"type":"image","mimeType":"image/jpeg","src":"/assets/static/philipp-katzenberger-LLmqyIxcXCE-unsplash.81b85c1.f3cc2dbcc51332230a1f8a6694c264e0.jpg","size":{"width":770,"height":380},"sizes":"(max-width: 770px) 100vw, 770px","srcset":["/assets/static/philipp-katzenberger-LLmqyIxcXCE-unsplash.81b85c1.f3cc2dbcc51332230a1f8a6694c264e0.jpg 770w"],"dataUri":"data:image/svg+xml,%3csvg fill='none' viewBox='0 0 770 380' xmlns='http://www.w3.org/2000/svg' xmlns:xlink='http://www.w3.org/1999/xlink'%3e%3cdefs%3e%3cfilter id='__svg-blur-5dcce4b47819ddef4c157ffdfbb24718'%3e%3cfeGaussianBlur in='SourceGraphic' stdDeviation='10'/%3e%3c/filter%3e%3c/defs%3e%3cimage x='0' y='0' filter='url(%23__svg-blur-5dcce4b47819ddef4c157ffdfbb24718)' width='770' height='380' xlink:href='data:image/jpeg%3bbase64%2c/9j/2wBDAAYEBQYFBAYGBQYHBwYIChAKCgkJChQODwwQFxQYGBcUFhYaHSUfGhsjHBYWICwgIyYnKSopGR8tMC0oMCUoKSj/2wBDAQcHBwoIChMKChMoGhYaKCgoKCgoKCgoKCgoKCgoKCgoKCgoKCgoKCgoKCgoKCgoKCgoKCgoKCgoKCgoKCgoKCj/wAARCAAgAEADASIAAhEBAxEB/8QAGQAAAwADAAAAAAAAAAAAAAAABQYHAQME/8QALhAAAgICAQMDAwQCAgMAAAAAAQIDBAURBgASIRMiMQdBURQyYXEVkVJigYLB/8QAGQEAAgMBAAAAAAAAAAAAAAAAAAIBAwQF/8QAIBEAAgIBBAMBAAAAAAAAAAAAAQIAAxEEEyGBQVGxwf/aAAwDAQACEQMRAD8AKXfp7x%2bvOsMdKKhGjhVsfqzEBrY87Ovgka199dMWT5dkcMEM/bPE6CSNol9RWT/kCu9jroMVyxmpaFmzjcnYeJJrEccXpoFdSNa7jryPBJO/nW%2bl/HJn8hQo3Lb45g2QkiVaAeLtRfUDOXJYtt10PAPgfnxzNXRZaA1TlSD1gnz9m7S211sRaoII/Ido88uXaliWphbdwwjuYQ%2bxj/1VX0WbXnQ/B6IV%2bURTYSfIZep%2bighVrPvHqFEXQJbQ9rhtgr5I10mVa3IZ8p346lQlBiivyrYQlVlkQBYkY6ZSui5I%2b/g6B6OSUc7mMlmKVgV0pmJFeAfsHeuyhfyzNr3aAVV2Bs7PWipH2QrnLc89ym1l3cqMLxx1Ork1mC5QxcoKvWszRH3jQZGI%2bR/R6J2uHcZljkkFCj/6Ssv3/vXSVjlt2aQxplhuGrN6VUsyjaprtBIBBKkAdxH2/wBkRD%2blv3bV/jsjQ14xb/X90bFpu3TP4AbetD8fwNdFdYOSYrWEYAiHls1wDG8iuQy5Km1dE7URC86B9jfujGzrz9%2bhOU%2bo3F8fAsmHqC7o9vqJjliQfx3y953/AOOqRe4Tj0yDf5HB4hZHBZpjBGe4e4kkgfPtOz48kdbJcdHVox0ZsNYTEzyQxQwiWMwerI2gvpb8KPnZHg7PQKF8xjc0Wfo1yy3yPN5m9bEad6whLEki950h7kIUD1G%2bCT47dD8%2bWSbNYWzlkxmNvUqrQzmSpCsnttWX7u7uX7BWbuGtgk/kaOeLfTTDcevUrOLsThqqsjp39yyFhvuOxvY2P9D8dTSatB9O/quK%2bKmcY65S75Y7e5Q59XYRSBtfdrR%2bxPnq7HqU59yn/Sy7eTjcX%2baMqZWeWaxM7xlY33KygqdAAEIND7D%2b%2bmzGvNHm8pIwT9O6RTFy2u1gvaR/pQd9T/6N8nl5RibN/kttBdjsvAkCIqIY1A1268sB3dpP9fPQ36kcsw9m3Wq8Yjt2Mv6z1DBWkkjhmKjTwzRj9/h9/APg6Pz08WacYlGlyiXJ3LVjH0na1cqxzzBgPa5LKqppVPc/jv3sfHVEweSTlfHJ1gWSWjdrtGstaT1AwYMv3A0w1%2bPBHUxyFjHJQx9bLZWhx2SvGTc46r7gmUnemXZ9zgj52fj8dFJOMZqrlrZ41lZ68lHDyRVYEi9CASyMdMrftPgefnR/HjpAJJh3n%2bWuYvkWApMxtPHSkD%2bt2xq0zAKGLD/4D8nx8dYrcujqHFY3l6zQ3J4VttKkDPW9VWLKiu2iG9u9fwfjqe8J5BleSScex5rzpIjfqLtxoxMs3YT7mLbOzrRII8kaB11T%2bU4evmOJ5ytbkrqZX9StJYk7BEdDTB2/YdhgD/P89TiE/9k=' /%3e%3c/svg%3e"},"path":"/blog/2021/five-minute-design-patterns-3-the-prototype-pattern/","tags":[{"id":"Design Patterns","title":"Design Patterns","path":"/blog/tag/Design%20Patterns/"},{"id":"C#","title":"C#","path":"/blog/tag/C%23/"},{"id":"Five Minute Design Patterns","title":"Five Minute Design Patterns","path":"/blog/tag/Five%20Minute%20Design%20Patterns/"}]}},{"node":{"id":"8e38f25eb259e6a02388e3ee5b53da0f","title":"Passing your PSM1 & becoming a certified Scrum Master.","date":"31. December 2020","timeToRead":6,"description":"I give you my top tips on how you can pass your Scrum.org PSM1 exam to become a fully certified Scrum Master.","cover_image":{"type":"image","mimeType":"image/jpeg","src":"/assets/static/lala-azizli-tfNyTfJpKvc-unsplash.81b85c1.055bcf0489f59d712c74bd3295fe8fb5.jpg","size":{"width":770,"height":380},"sizes":"(max-width: 770px) 100vw, 770px","srcset":["/assets/static/lala-azizli-tfNyTfJpKvc-unsplash.81b85c1.055bcf0489f59d712c74bd3295fe8fb5.jpg 770w"],"dataUri":"data:image/svg+xml,%3csvg fill='none' viewBox='0 0 770 380' xmlns='http://www.w3.org/2000/svg' xmlns:xlink='http://www.w3.org/1999/xlink'%3e%3cdefs%3e%3cfilter id='__svg-blur-b459a3e26ced5eadc76ba30052d4a691'%3e%3cfeGaussianBlur in='SourceGraphic' stdDeviation='10'/%3e%3c/filter%3e%3c/defs%3e%3cimage x='0' y='0' filter='url(%23__svg-blur-b459a3e26ced5eadc76ba30052d4a691)' width='770' height='380' xlink:href='data:image/jpeg%3bbase64%2c/9j/2wBDAAYEBQYFBAYGBQYHBwYIChAKCgkJChQODwwQFxQYGBcUFhYaHSUfGhsjHBYWICwgIyYnKSopGR8tMC0oMCUoKSj/2wBDAQcHBwoIChMKChMoGhYaKCgoKCgoKCgoKCgoKCgoKCgoKCgoKCgoKCgoKCgoKCgoKCgoKCgoKCgoKCgoKCgoKCj/wAARCAAgAEADASIAAhEBAxEB/8QAGgAAAgMBAQAAAAAAAAAAAAAABAUDBgcBCP/EADAQAAIBAwIEBQIFBQAAAAAAAAECAwQFEQAhBhIxQRMUIlFhcYEHI5GhwRUkMrHR/8QAFwEBAQEBAAAAAAAAAAAAAAAABAIDBf/EACERAAICAgIBBQAAAAAAAAAAAAECABEhMQMSBBMiQcHx/9oADAMBAAIRAxEAPwCr2GlK8X2J%2bn9yV/WJv%2ba2BafYbgn5OdYvwPab7VcSW%2b6B5BReYLLLIMo2G5WUDsQMj41vQVT6sY9tFcEUBE8Z2TEU1KB21NZbW1wrUp1ZEJBOXOBtobjG5vZrNJWRU7TyB1QIoJ3J64GhuAb/AC3Cn87U0j08kchjKupUPsNx8b6gdRltTQ2cLudq5PLVrxF8mM8vJkANn5PtoWWSVZPD8aQs2cHYAYzt009mhWWR5DGvM5ycjOgFQiKQr6gck8w5R99tF5gyG7wbjOJlI1kQmkjZ6dhzOrNlQ%2bcn4Om1LDgDck%2b%2bqhauMLI9ZFQpV/mM3KrlMIST0B/nV7p1GBpC2IYkHImYcCcdecrbXY7lQUqxtJ%2bU8KiMKwGQSvTr7Y66uPHVzq7FSxVtDTxzUbbSbElD2Ox/xP8AvXnjx3hrKSWFisqEsjDsRgg/tre7de6WK0QPWtGbbVw80yTSekFhllwe2Sdu2um6Lepz0c9d1IrLxlbq7hl3rlennqfEi8ZIuYIegxnIzjfTjh0W2gtdRLVVJnjqpRKkzpgx%2bgKoXHtyj9dVoWHheOzxUMlwn8kJDURcrYOWG%2b4O4xjH86bPVWayWq2NQG5TQvKYYyZCy79c57DH76H092sfUV6gC7/YVPTP/TI5o38RTnkbnYcxHv30qqKKSW0VfKzmYqwIRmxv2G/sddt93jp66onqFeWGViyo3VMn69gMaIob3RUstQ/LPIsrApGUXCAE7e566z5OJGFVdalJ5DKbvHzMltvB1VUW243SeUU9PTSrChkIUOx3O%2be2331rH4a19dU2PkuLrKY2xFNnJkT3P06aS/iRV0r2SCnA8rS5adIolBVn2JZz99Q8CVTUdRSpKQsUnpHqBG/0OOuNQxYZM0QKcCf/2Q==' /%3e%3c/svg%3e"},"path":"/blog/2020/passing-your-ps-m1-and-becoming-a-certified-scrum-master/","tags":[{"id":"SCRUM","title":"SCRUM","path":"/blog/tag/SCRUM/"},{"id":"PSM1","title":"PSM1","path":"/blog/tag/PSM1/"}]}},{"node":{"id":"7871825aef6fefa180425bdbc41c310e","title":"Five Minute Design Patterns #2: The Factory Pattern","date":"5. December 2020","timeToRead":5,"description":"The second post in my blog post series where I try to cover all of the Gang of Four Design Patterns in five minutes each, this time it's one of the Creational Patterns... the Factory Pattern!","cover_image":{"type":"image","mimeType":"image/jpeg","src":"/assets/static/patrick-hendry-6xeDIZgoPaw-unsplash.81b85c1.19c58e44efa5d52289ec9dbf12fe4afc.jpg","size":{"width":770,"height":380},"sizes":"(max-width: 770px) 100vw, 770px","srcset":["/assets/static/patrick-hendry-6xeDIZgoPaw-unsplash.81b85c1.19c58e44efa5d52289ec9dbf12fe4afc.jpg 770w"],"dataUri":"data:image/svg+xml,%3csvg fill='none' viewBox='0 0 770 380' xmlns='http://www.w3.org/2000/svg' xmlns:xlink='http://www.w3.org/1999/xlink'%3e%3cdefs%3e%3cfilter id='__svg-blur-254c741e9af33be282a68ff6548bfa03'%3e%3cfeGaussianBlur in='SourceGraphic' stdDeviation='10'/%3e%3c/filter%3e%3c/defs%3e%3cimage x='0' y='0' filter='url(%23__svg-blur-254c741e9af33be282a68ff6548bfa03)' width='770' height='380' xlink:href='data:image/jpeg%3bbase64%2c/9j/2wBDAAYEBQYFBAYGBQYHBwYIChAKCgkJChQODwwQFxQYGBcUFhYaHSUfGhsjHBYWICwgIyYnKSopGR8tMC0oMCUoKSj/2wBDAQcHBwoIChMKChMoGhYaKCgoKCgoKCgoKCgoKCgoKCgoKCgoKCgoKCgoKCgoKCgoKCgoKCgoKCgoKCgoKCgoKCj/wAARCAAgAEADASIAAhEBAxEB/8QAGgAAAwEBAQEAAAAAAAAAAAAABAUGBwIAAf/EAC0QAAEDAwIDBwQDAAAAAAAAAAECAwQABRESIQYTMRQiQVFhcZEHMoGxFaHB/8QAGAEBAQEBAQAAAAAAAAAAAAAAAQACAwT/xAAcEQEBAAIDAQEAAAAAAAAAAAABAAIREhNBA1H/2gAMAwEAAhEDEQA/AL2HDZWynSe9RHY4repchfdzjrtk9KDTb5sQBAJUfPyqS4imP3CztBxpbJF0DAGrOotuEZ/OM4ocrWq1nQ8IJbUVISMgH9Un7rbg1IKFe9LeFLxPuFnW/IXzHO0voBIwcJcUAPwBQt2vioEyCy6A49KfDSU6hlOQTqx5bYqGNR92MhgF1xtYaz9%2bNs0jtPEEabcjCjOh1zQVEoOQMEDHvvXUK7IFudeUlotZKCUt5KgTjcjc7moL6cu6OKHjrKipLmBpxp7wH%2bUueqC2GOHC4kOAjA2o1SkMHLgIUKWouJacBc64wM0RNuSZEQIUMFPjWt0SK9/UeA7ZpnL7dGkLQA0eX3gc4zsayBN2kvznEPTpDjb6lKaaQ%2bdesnoARjc0fbLjY7NJMyC1IcdA06HG8pHsCql10lRZT7ExqzSWXdZKFRGOUFEEEHbIyD%2b68vM9Ls4J7PPp9xB/DwX2n5YiNLJCOYdakq1Z1beh32%2bKXcZcSsO3yE9bkIdbjviQSkk8zBAHXcfaSfU1PSWJBRpj2Sdy1EkczKt/jauHIl50p5dsUgn7SrBx8nanmR11xCv0CFY7hzFglySHEICwVFJwRgeYI3qQs19ct91eeiOaHWkKIykHUdRVj23FAx7Zehg9lZQoAjUVNpx6da%2bsW%2b9JfLqENoWDrStTqOoocz9kwS1uLxjEREkOOpS6HHSttDmUacgnAO/kPmn8O6w59nRcEONpjqVoJJxoPgDnxrIRdOJnDpcmxdhpw4Uqx6jun%2bq88xc57rZm3a3Mob6FDa/DpsEjP5q7go%2ba3//Z' /%3e%3c/svg%3e"},"path":"/blog/2020/five-minute-design-patterns-2-the-factory-pattern/","tags":[{"id":"Design Patterns","title":"Design Patterns","path":"/blog/tag/Design%20Patterns/"},{"id":"C#","title":"C#","path":"/blog/tag/C%23/"},{"id":"Five Minute Design Patterns","title":"Five Minute Design Patterns","path":"/blog/tag/Five%20Minute%20Design%20Patterns/"}]}},{"node":{"id":"5018fa0b4c92c8f911dc8f6ce51179eb","title":"Five Minute Design Patterns #1: The Builder Pattern","date":"28. November 2020","timeToRead":5,"description":"The first of posts in my blog post series where I try to cover all of the Gang of Four Design Patterns in five minutes each, this time it's one of the Creational Patterns... the Builder Pattern!","cover_image":{"type":"image","mimeType":"image/jpeg","src":"/assets/static/ashkan-forouzani-_Y82jqFIBgw-unsplash.81b85c1.1143a92f98ea8f3c17046cd014df1e3a.jpg","size":{"width":770,"height":380},"sizes":"(max-width: 770px) 100vw, 770px","srcset":["/assets/static/ashkan-forouzani-_Y82jqFIBgw-unsplash.81b85c1.1143a92f98ea8f3c17046cd014df1e3a.jpg 770w"],"dataUri":"data:image/svg+xml,%3csvg fill='none' viewBox='0 0 770 380' xmlns='http://www.w3.org/2000/svg' xmlns:xlink='http://www.w3.org/1999/xlink'%3e%3cdefs%3e%3cfilter id='__svg-blur-917627b6e3f569e1eeb5e66c620bc7c2'%3e%3cfeGaussianBlur in='SourceGraphic' stdDeviation='10'/%3e%3c/filter%3e%3c/defs%3e%3cimage x='0' y='0' filter='url(%23__svg-blur-917627b6e3f569e1eeb5e66c620bc7c2)' width='770' height='380' xlink:href='data:image/jpeg%3bbase64%2c/9j/2wBDAAYEBQYFBAYGBQYHBwYIChAKCgkJChQODwwQFxQYGBcUFhYaHSUfGhsjHBYWICwgIyYnKSopGR8tMC0oMCUoKSj/2wBDAQcHBwoIChMKChMoGhYaKCgoKCgoKCgoKCgoKCgoKCgoKCgoKCgoKCgoKCgoKCgoKCgoKCgoKCgoKCgoKCgoKCj/wAARCAAgAEADASIAAhEBAxEB/8QAGwAAAQUBAQAAAAAAAAAAAAAAAwECBQYHBAD/xAAuEAACAQMDAgUDAwUAAAAAAAABAgMABBEFEiExQQYTUWFxByIyFCOBkaGx0fD/xAAXAQEBAQEAAAAAAAAAAAAAAAADBAIF/8QAHREBAAIDAAMBAAAAAAAAAAAAAQARAgMEEiEiQf/aAAwDAQACEQMRAD8A7buCe%2bjEUErW8Rb9yRT9xXuB89M9v7VG6xZaXY6ekUQhiJcBUByXYY4Kjlug/mianqF7JaSCwRoWKHywg3SMcd8cIP8AsiqZqeqSafKpu9PZpSBdSs9xvIUnaG6EnPbnHB6UfZs%2bEC2Jxa/sVonpNXl8T3DWen6fOYbdzshjG1nzkNubjYvqDj5OKboX07mu5Z5NTie3j3sI4mb7QCBn3YZ7cCrr4Ev9Ml0m1i0/y1dwSwChWcjkk4/L5q1EUmnEywFh78nHND1IbSdAsNKjVbW3jUr0IUAA%2boA4H%2bakWWjkUxlqkkjOV1oLLXYy0Fl61sZhI42UP6KeBEEccqMHK8E5HJz1z71jDWc0sGomSQXNw%2bF3SNtLlSDgYxg4B6VqviXWrfT4jamZEupY2ZQ3pg/6/ris3tLK0a3aRjm4ETzCMA5gbplsfjjgehJPpXJ726CdfgKtf2T30x0OJZlu5Tie1LbcRmM5YEEHPX3/AI9K0rFY9oupat4ct5hb%2bZq8s8ipHDjgMewOM45HPz6Vr1p5xtYTdKqzlAXUNuAbuM9/mn5E8Kgdg%2bdxSKTFEIpMVXI6gyKpXi22v7bWrXUrGZLeEqtvI2Sd7sSF3L02rx7nPtV4Iqo/Uiea20KNoPu3zopjCFmfncMEdMbSc%2bgNbwfcPaPg1P/Z' /%3e%3c/svg%3e"},"path":"/blog/2020/five-minute-design-patterns-1-the-builder-pattern/","tags":[{"id":"Design Patterns","title":"Design Patterns","path":"/blog/tag/Design%20Patterns/"},{"id":"C#","title":"C#","path":"/blog/tag/C%23/"},{"id":"Five Minute Design Patterns","title":"Five Minute Design Patterns","path":"/blog/tag/Five%20Minute%20Design%20Patterns/"}]}}]}},"context":{}}