{"hash":"6fe372bab11d0fceef4dd394fd3b9f44e24d1db3","data":{"posts":{"totalCount":24,"pageInfo":{"totalPages":5,"currentPage":3,"isFirst":false,"isLast":false},"edges":[{"node":{"id":"f5085831ad4d4e7e0d4ad7cdcb68bad6","title":"Microservices 101 ft. DDD: The good, the bad & the ugly.","date":"12. April 2019","timeToRead":30,"description":"I attended the latest Designing Microservices workshop at NDC London 2019...","cover_image":{"type":"image","mimeType":"image/jpeg","src":"/assets/static/sara-scarpa-wKmkzbrLpMM-unsplash.81b85c1.797d091ff14ded6c570ba5c5b2af30df.jpg","size":{"width":770,"height":380},"sizes":"(max-width: 770px) 100vw, 770px","srcset":["/assets/static/sara-scarpa-wKmkzbrLpMM-unsplash.81b85c1.797d091ff14ded6c570ba5c5b2af30df.jpg 770w"],"dataUri":"data:image/svg+xml,%3csvg fill='none' viewBox='0 0 770 380' xmlns='http://www.w3.org/2000/svg' xmlns:xlink='http://www.w3.org/1999/xlink'%3e%3cdefs%3e%3cfilter id='__svg-blur-adcc4a7a226d8d62f050c226ed759c19'%3e%3cfeGaussianBlur in='SourceGraphic' stdDeviation='10'/%3e%3c/filter%3e%3c/defs%3e%3cimage x='0' y='0' filter='url(%23__svg-blur-adcc4a7a226d8d62f050c226ed759c19)' width='770' height='380' xlink:href='data:image/jpeg%3bbase64%2c/9j/2wBDAAYEBQYFBAYGBQYHBwYIChAKCgkJChQODwwQFxQYGBcUFhYaHSUfGhsjHBYWICwgIyYnKSopGR8tMC0oMCUoKSj/2wBDAQcHBwoIChMKChMoGhYaKCgoKCgoKCgoKCgoKCgoKCgoKCgoKCgoKCgoKCgoKCgoKCgoKCgoKCgoKCgoKCgoKCj/wAARCAAgAEADASIAAhEBAxEB/8QAGgAAAwADAQAAAAAAAAAAAAAABQYHAgMECP/EADEQAAIBAwIFAwIDCQAAAAAAAAECAwQFEQASBiExUYETQXEiYRUjMgcUM1JykbHB0f/EABgBAAMBAQAAAAAAAAAAAAAAAAEDBAIA/8QAHhEAAgEFAQEBAAAAAAAAAAAAAQIAAxESITFBUcH/2gAMAwEAAhEDEQA/AJzbaaeuq4qeijeWeRsIijmTqhcD2Krprt6l0slwMyfw2EKmKM/zE569hjSxwFBPHPV10TbERfQWToQW5nHgD%2b%2bqXZLlXJUBXY7V57sddRs6jRlzluCddO0lHVASNNUbzu2gqpHP7nRC6JDXyj8SISlUBYIQee7nuYkdfYfbn31or7WlxMs0VVKtTgKiqRtGOo889D7yUangaWCppXjIi/LxL4IznS8xsPwxYHqw1bqCOl3fhxLq3UdSvwPfQjiHhqhvu6KcmoqlTP1ja6j7MOnwcjW%2bgnoqFgJrhIJFQsVdPTJA%2beuh01wq7dGtVUq61dYxmkzz2Kf0p8gY1lCMsV1%2bQ7AvJDxZwvNw8FmWVRAzbFdvokU9cMvjqOWlkS7pPrIWQDk45g%2bPbXp21Xamu8LU9xggqYSMYljD48HUz/a7w/TUyU8lns0dPTJlp6imXCgnkAyjoPvjVqPYAMbwBsvIkLdLpT200tDXSQRlixVEVskjqMjPPGnyzz0FXZ4Ylv1VVVKqPV9d9jMf6BjAHbSHUrgZAUDPXv8A91hb5rZDd6Ke8xTGkidXbYMnI6Bsc8Z64/3qV6YYSg/ZcbG37tTI9XKPUb9Cgnp3%2bTo5VUdNcoizzNHOoyGXGG%2bR30g3KvaqMVfbHWeNucbRtlceNFrDWVjnfMjDuW9vjSw1Mmx7EFWHIdii/I9KqkhlVuRy2MfHuPGtV2s0s1KCs/qRA81fmR50sXG6mSrV0jkWnzhD3HfzpgsVZM4URZaNjhsjPLQo01a5JnOxU2E5bfNBaqoU0in1tu4bVJDee%2buTibjBbJb0gkSN7nUKTHTk5CA%2b7fb/ADpX4mraym4vrK63VACoBB6b/VGdoPt3yTz1PamapavlmuBeSsdt7u5zuPf47Y6afRQm4vqbZOEz/9k=' /%3e%3c/svg%3e"},"path":"/blog/2019/microservices-101-ft-ddd-the-good-the-bad-and-the-ugly/","tags":[{"id":"Software Architecture","title":"Software Architecture","path":"/blog/tag/Software%20Architecture/"}]}},{"node":{"id":"247e3545b0c53751c4405efbb2b9ca6e","title":"Data Visualisation, The Dark Web and Lightning Talks... Interested?","date":"14. March 2019","timeToRead":2,"description":"Does this title incite you? Well, I have the solution on Tuesday March 19th!","cover_image":{"type":"image","mimeType":"image/jpeg","src":"/assets/static/k8-0_fkPHulv-M-unsplash.81b85c1.508bccea5117eb309ee1f2a710fb368b.jpg","size":{"width":770,"height":380},"sizes":"(max-width: 770px) 100vw, 770px","srcset":["/assets/static/k8-0_fkPHulv-M-unsplash.81b85c1.508bccea5117eb309ee1f2a710fb368b.jpg 770w"],"dataUri":"data:image/svg+xml,%3csvg fill='none' viewBox='0 0 770 380' xmlns='http://www.w3.org/2000/svg' xmlns:xlink='http://www.w3.org/1999/xlink'%3e%3cdefs%3e%3cfilter id='__svg-blur-06223d9de112518aa7737ff33c53021c'%3e%3cfeGaussianBlur in='SourceGraphic' stdDeviation='10'/%3e%3c/filter%3e%3c/defs%3e%3cimage x='0' y='0' filter='url(%23__svg-blur-06223d9de112518aa7737ff33c53021c)' width='770' height='380' xlink:href='data:image/jpeg%3bbase64%2c/9j/2wBDAAYEBQYFBAYGBQYHBwYIChAKCgkJChQODwwQFxQYGBcUFhYaHSUfGhsjHBYWICwgIyYnKSopGR8tMC0oMCUoKSj/2wBDAQcHBwoIChMKChMoGhYaKCgoKCgoKCgoKCgoKCgoKCgoKCgoKCgoKCgoKCgoKCgoKCgoKCgoKCgoKCgoKCgoKCj/wAARCAAgAEADASIAAhEBAxEB/8QAGgAAAgMBAQAAAAAAAAAAAAAAAwUEBgcIAv/EAC8QAAIBAwQBAQQLAQAAAAAAAAECAwAEEQUGEiFBMRNRYZEHFBUyM0JxgaGx0fD/xAAXAQEBAQEAAAAAAAAAAAAAAAABAwIA/8QAGxEAAgIDAQAAAAAAAAAAAAAAAAECEQMSMSH/2gAMAwEAAhEDEQA/AOj0oyigxmjA0mT2KSb211NubW1DU2BaSKPjCiryLyseMagecsRTW5uI7a2lnmbjHGpZj8BVFvDcbgkMl51GhJt7dT0jY%2b8T5bHWfGTikrjhbt8GX0X7qn3Ztr67e2zW93HM8Mg4cVbB6K/t/wB3VuNZtYWeo6Gkc1jMI5XRXnhYcopWx2ceD8Rg/Kr5pV%2bmo2EVyilOWQyH1VgcEfOuHLCnsuElhQHFHY0CQ0EjzG1HVqXpJijrJSBD3QxbRbpF7JX09%2bCDj%2bKRbcu4ZZ04EMp/MvY7x/lPNWQz2zID6iuet97Tv4NWa%2b0728cmc8oXZT%2bvRrMnSK45eas23dGu6dpunwzX0q2zEkKsvRbxgD1J%2bAqds%2bZfstSMj2rNLg%2bOXj%2bq5525t6/vNUS61Nri4uSfxJmLlR7gT6Vv234zBbIp6wKIN16ORriLMWoEj0My9UF5M1sif//Z' /%3e%3c/svg%3e"},"path":"/blog/2019/data-visualisation-the-dark-web-and-lightning-talks-interested/","tags":[{"id":"Miscellaneous","title":"Miscellaneous","path":"/blog/tag/Miscellaneous/"}]}},{"node":{"id":"30a921d89404a5517fea09a9bf7bafe6","title":"Deploying an AdonisJS application to the cloud using AWS Elastic Beanstalk.","date":"8. March 2019","timeToRead":8,"description":"From your hard drive to the AWS cloud in seconds!","cover_image":{"type":"image","mimeType":"image/jpeg","src":"/assets/static/c-dustin-K-Iog-Bqf8E-unsplash.81b85c1.a4e3c2423f6b5c80e0f9b0e6f5bdb494.jpg","size":{"width":770,"height":380},"sizes":"(max-width: 770px) 100vw, 770px","srcset":["/assets/static/c-dustin-K-Iog-Bqf8E-unsplash.81b85c1.a4e3c2423f6b5c80e0f9b0e6f5bdb494.jpg 770w"],"dataUri":"data:image/svg+xml,%3csvg fill='none' viewBox='0 0 770 380' xmlns='http://www.w3.org/2000/svg' xmlns:xlink='http://www.w3.org/1999/xlink'%3e%3cdefs%3e%3cfilter id='__svg-blur-68cbf3a4b9af857306772176775deccd'%3e%3cfeGaussianBlur in='SourceGraphic' stdDeviation='10'/%3e%3c/filter%3e%3c/defs%3e%3cimage x='0' y='0' filter='url(%23__svg-blur-68cbf3a4b9af857306772176775deccd)' width='770' height='380' xlink:href='data:image/jpeg%3bbase64%2c/9j/2wBDAAYEBQYFBAYGBQYHBwYIChAKCgkJChQODwwQFxQYGBcUFhYaHSUfGhsjHBYWICwgIyYnKSopGR8tMC0oMCUoKSj/2wBDAQcHBwoIChMKChMoGhYaKCgoKCgoKCgoKCgoKCgoKCgoKCgoKCgoKCgoKCgoKCgoKCgoKCgoKCgoKCgoKCgoKCj/wAARCAAgAEADASIAAhEBAxEB/8QAHAAAAgIDAQEAAAAAAAAAAAAABQcECAIDBgAB/8QAKxAAAQMDAwIFBAMAAAAAAAAAAQIDBAAFEQYSITFRBxMUQWEiIzKBFZGh/8QAGAEBAAMBAAAAAAAAAAAAAAAABAECBQD/xAAbEQACAgMBAAAAAAAAAAAAAAABAgARAwQhIv/aAAwDAQACEQMRAD8AS5TWJFZ0f0HZot/1XBt055bUZ1R3FH5KwM7QfYnvWoTQszHUFjQkGxacu9%2beS1abfIklWfqSnCBjrlR4H90dPhpqYRfNMEFwKCSwHAXBk45A4AHvzVkI8SDpTT7Vosa3A02CEFa9ygTyTnvyaGWy8JgtqCkBa08DI5PzQzstfkR66qgejK/SvDnVMW2eues8gNBZQpAG5xOPcoHOD7Ghdy0pfbbb/XT7VKYiAgF1acBOeme2fmrPtagkynSlsAKJ/EHrUbWempuoNOrgPPJjMPOIW55ZBWQDkjHSuGy1%2bhIOqteTKnYr2KM6qtzFpvsuDGL5QwvZ9/bv6Drjjv8ArFCKYO9gjw1Nu0kEimfbYVliQrRcbQh6PcmUpW65524LJGCCOg59qWwTgVIiTZEXIZcUEk5254qHWxIx5Ap6I6f5yY8sOynVLR2x0opbJYkI%2bjlKjz3pOwdQyNyUPOBLZ/fNGotwdUrLbvHdJorYiI5M4aN6ZCEVlMmO4NyRk4PNfYF1dlr8ou/7SyVNdLP3pCy3joVdK5KRqq6xXJMeNICASUBxAwcfBqq4S0s%2bwEkjxVtrcHUa1pfXIXIJdU4paSeuNpAHBHzzXGYre844%2b8px5anHFHKlKOSTWBTTFFCpns1kmf/Z' /%3e%3c/svg%3e"},"path":"/blog/2019/deploying-an-adonis-js-application-to-the-cloud-using-aws-elastic-beanstalk/","tags":[{"id":"AdonisJs","title":"AdonisJs","path":"/blog/tag/AdonisJs/"},{"id":"Node.js","title":"Node.js","path":"/blog/tag/Node.js/"},{"id":"AWS","title":"AWS","path":"/blog/tag/AWS/"}]}},{"node":{"id":"3983b9d945a5dba8a0ab8836c2095e7a","title":"My Raspberry Pi Zero & the USB Audio Confusion","date":"17. February 2019","timeToRead":4,"description":"So... I won a free Raspberry Pi Zero from Google! Then I bought some USB speakers for it and chaos ensued!","cover_image":{"type":"image","mimeType":"image/jpeg","src":"/assets/static/harrison-broadbent-hSHNPyND_dU-unsplash.81b85c1.5996aa4a3c02c6d466de62296f38df5a.jpg","size":{"width":770,"height":380},"sizes":"(max-width: 770px) 100vw, 770px","srcset":["/assets/static/harrison-broadbent-hSHNPyND_dU-unsplash.81b85c1.5996aa4a3c02c6d466de62296f38df5a.jpg 770w"],"dataUri":"data:image/svg+xml,%3csvg fill='none' viewBox='0 0 770 380' xmlns='http://www.w3.org/2000/svg' xmlns:xlink='http://www.w3.org/1999/xlink'%3e%3cdefs%3e%3cfilter id='__svg-blur-3d5e9a9ff7dcb6266c432e2f0d8a3a30'%3e%3cfeGaussianBlur in='SourceGraphic' stdDeviation='10'/%3e%3c/filter%3e%3c/defs%3e%3cimage x='0' y='0' filter='url(%23__svg-blur-3d5e9a9ff7dcb6266c432e2f0d8a3a30)' width='770' height='380' xlink:href='data:image/jpeg%3bbase64%2c/9j/2wBDAAYEBQYFBAYGBQYHBwYIChAKCgkJChQODwwQFxQYGBcUFhYaHSUfGhsjHBYWICwgIyYnKSopGR8tMC0oMCUoKSj/2wBDAQcHBwoIChMKChMoGhYaKCgoKCgoKCgoKCgoKCgoKCgoKCgoKCgoKCgoKCgoKCgoKCgoKCgoKCgoKCgoKCgoKCj/wAARCAAgAEADASIAAhEBAxEB/8QAGwAAAwADAQEAAAAAAAAAAAAABQYHAQMIAgT/xAAwEAABBAEDAgQFAwUBAAAAAAABAgMEEQUAEiEGMQcTImEjMlFxoUGBkRQVQmJywf/EABgBAAMBAQAAAAAAAAAAAAAAAAECBAAD/8QAIxEBAAIBBAEEAwAAAAAAAAAAAQACEQMEEjEhIiNRcWHw8f/aAAwDAQACEQMRAD8AS/FDxCiFMqDFaf8ATsMc8JS8bsrWDyUAVSf8ibPYDUT8yRNkuOOOrW44q1qJ5J99YebkvSyJXmecQCd93Vcd/bRzGwg2kEjRCJZx9zGIw%2b%2bWw2b%2bItKSfYnVWzWOezbCA2VISl1Ra2Ddv%2bVAsHmzQAqhpGhL8iSlwbfhNrWbH0FD8kaZuh8W3LxEqZJkuhUdR2bV1toXyT2B/T31uIopIN3fUrXlVxA07p9xBIDrLqSstpDqC2skD6c19PvoJMxDrVpdjPNH25/GusE%2bGmHy2DxyZ39U1JDaFrU28SN5SCrhVjk96q9c/wAiRWayLSHnXYMeQ4y0tVbnEhZF/vXb30Ti9RbW3GkDbCP7%2bJO3oJ3UhwbiaCVCidapuInRz6mCtJG4KaUFgj62PsdVdrATpvnDFQDMUfWpSUAqQgEXYH/l6E5d3ZODMwuRg278RLySFJuqBHeuD/Okc58dTtp7htjJhZSvGfw1amdKtZrBsD%2b44tu1oQLL7A5PbuU9x7WPpqFwXkvMBSaojVG6c8S%2bpfD9mb0xnIYXKjp2xhJJPkE9iCPnbI5Av7GuNTXNyWFdUzXYEVMSJIUHksIVaUFQBUE/63dD9BQ0wMruj9xkxGPROxWTUuS1HBSlCVKTuJPzbR7mhoth8MxAjLEnzUOpUhxDoNpUn9SasXZHp7jWjpGfgHscMfnCtn1OO%2bYflKqGz1X6aoiiDe7uK196ZcN/PqZx%2bR3IUWWkIS4gJCiACUgcexIBJ0CyvxIdevpeRkf5HSF4l9ax1vNpYiZOOiwCGgFgVwRtIP8AI1MYMtnFxEl1bhS66UhRHJV3PH3P503ZdjGJdluRrjthx1KQkkHhVDnm7N6mmXyTT4ist2yhlZRv%2bYkqc5VX/KRxolqvRNbba7it7%2bJV%2blerJPTHqaxTEhuUEI2lwtLuz24IJN/jSpnFqzPW2UyrzCVtPfGUyob9voASgn6gV%2b%2bhceSlyC%2bmQXUSGFg%2bqwUKB7Hsd3P417yEE%2bUhxM2S3IKbVS/rzpLJ3Ou3revt28hP/9k=' /%3e%3c/svg%3e"},"path":"/blog/2019/my-raspberry-pi-zero-and-the-usb-audio-confusion/","tags":[{"id":"Miscellaneous","title":"Miscellaneous","path":"/blog/tag/Miscellaneous/"}]}},{"node":{"id":"73d5322e686a9eb198d0c3857460873f","title":"Associating templating file formats with html in Visual Studio Code","date":"15. December 2018","timeToRead":1,"description":"A simple solution, to an annoying problem.","cover_image":{"type":"image","mimeType":"image/jpeg","src":"/assets/static/pankaj-patel-u2Ru4QBXA5Q-unsplash.81b85c1.6dd20e8f288066823340e9b829c8afd1.jpg","size":{"width":770,"height":380},"sizes":"(max-width: 770px) 100vw, 770px","srcset":["/assets/static/pankaj-patel-u2Ru4QBXA5Q-unsplash.81b85c1.6dd20e8f288066823340e9b829c8afd1.jpg 770w"],"dataUri":"data:image/svg+xml,%3csvg fill='none' viewBox='0 0 770 380' xmlns='http://www.w3.org/2000/svg' xmlns:xlink='http://www.w3.org/1999/xlink'%3e%3cdefs%3e%3cfilter id='__svg-blur-b45f353ccd384150b26df9b0b0258ea8'%3e%3cfeGaussianBlur in='SourceGraphic' stdDeviation='10'/%3e%3c/filter%3e%3c/defs%3e%3cimage x='0' y='0' filter='url(%23__svg-blur-b45f353ccd384150b26df9b0b0258ea8)' width='770' height='380' xlink:href='data:image/jpeg%3bbase64%2c/9j/2wBDAAYEBQYFBAYGBQYHBwYIChAKCgkJChQODwwQFxQYGBcUFhYaHSUfGhsjHBYWICwgIyYnKSopGR8tMC0oMCUoKSj/2wBDAQcHBwoIChMKChMoGhYaKCgoKCgoKCgoKCgoKCgoKCgoKCgoKCgoKCgoKCgoKCgoKCgoKCgoKCgoKCgoKCgoKCj/wAARCAAgAEADASIAAhEBAxEB/8QAGwABAQEAAgMAAAAAAAAAAAAABQQDAAECBgj/xAAyEAACAQMCAwUGBgMAAAAAAAABAhEAAwQSIQUxQRMiMlHBI2FxobHwJENSU3KBkbLC/8QAGQEAAgMBAAAAAAAAAAAAAAAAAQIAAwQF/8QAIhEAAgICAQMFAAAAAAAAAAAAAAECEQMhIgQSMUGRobHw/9oADAMBAAIRAxEAPwD5aprgz9ljtpCnWe9ImPuaF6Upw9Sth2UBidoBgijHbEyOo2he5kXCrLZuWEuTBnaB5ipkyrw27bh5CyoBUr6VjdL3J/CIyEA%2bITtz3mpteOSPYOu%2b8XZ%2bopJLk0WRfFMTW%2b7KS1jhtye%2bfagH6/Ko8nh93tNSYyop5Kl0P6zUradR0g6ek868dI8h/iir9SNprXkqsIlluxzFFtHaO/yDdJ8ufOtALWLee1ZzcQKfEXs9qs%2b46Tt8Ku4Jmvj4rWrSIzdoHYOispWIjdTHnNcfPtOy3cnhSErIchECnnGwUDqKLEW5bl%2b%2bz1hCkAMDPmDTPCNKhnUwVM8pnbrQi%2bIUzg%2byxCWVjqmAqz97U2NXITM6joRbHs5TKl3XEyQg3YxOw9BXVrhGK6y93LtGJ3sMR/rR75OO98k7rvu1kMPmQatwsnERgRdsp8Vv2vmjGqM7afGzT0yXbzq/YkPDmLMEycUwT4rugmP5AVovBc5wext2r0ftX7bf9VTi5HcbTkxIOwywObHo6%2bs9aUtB7wfuPeG/5GLkfQg0uTI4OlRZixKat2BcNW7YzWttqtkDS4mNvf8AZqh83KhlLsyN3TqtFpG/Wpsa4mPnM19lt6lJBI0gSPdMfCsDctTsyEz%2bgif7BrT4ObOClLua%2bD//2Q==' /%3e%3c/svg%3e"},"path":"/blog/2018/associating-templating-file-formats-with-html-in-visual-studio-code/","tags":[{"id":"Miscellaneous","title":"Miscellaneous","path":"/blog/tag/Miscellaneous/"}]}}]}},"context":{}}