{"hash":"6fe372bab11d0fceef4dd394fd3b9f44e24d1db3","data":{"posts":{"totalCount":24,"pageInfo":{"totalPages":5,"currentPage":5,"isFirst":false,"isLast":true},"edges":[{"node":{"id":"118fd0ed341cc941c31b896622de344b","title":"Turning iTerm in to a Quake style terminal on Mac OS","date":"10. May 2018","timeToRead":2,"description":"Like ConEmu on Windows? Get the same on Mac OS!","cover_image":{"type":"image","mimeType":"image/jpeg","src":"/assets/static/lewis-ngugi-f5pTwLHCsAg-unsplash.81b85c1.0c9af00b2094e922f384d3ea4cded7f0.jpg","size":{"width":770,"height":380},"sizes":"(max-width: 770px) 100vw, 770px","srcset":["/assets/static/lewis-ngugi-f5pTwLHCsAg-unsplash.81b85c1.0c9af00b2094e922f384d3ea4cded7f0.jpg 770w"],"dataUri":"data:image/svg+xml,%3csvg fill='none' viewBox='0 0 770 380' xmlns='http://www.w3.org/2000/svg' xmlns:xlink='http://www.w3.org/1999/xlink'%3e%3cdefs%3e%3cfilter id='__svg-blur-968cb408ce88ca801b819bea4317a771'%3e%3cfeGaussianBlur in='SourceGraphic' stdDeviation='10'/%3e%3c/filter%3e%3c/defs%3e%3cimage x='0' y='0' filter='url(%23__svg-blur-968cb408ce88ca801b819bea4317a771)' width='770' height='380' xlink:href='data:image/jpeg%3bbase64%2c/9j/2wBDAAYEBQYFBAYGBQYHBwYIChAKCgkJChQODwwQFxQYGBcUFhYaHSUfGhsjHBYWICwgIyYnKSopGR8tMC0oMCUoKSj/2wBDAQcHBwoIChMKChMoGhYaKCgoKCgoKCgoKCgoKCgoKCgoKCgoKCgoKCgoKCgoKCgoKCgoKCgoKCgoKCgoKCgoKCj/wAARCAAgAEADASIAAhEBAxEB/8QAGQAAAwEBAQAAAAAAAAAAAAAAAwQGBQcC/8QANxAAAgECBAQBCQcFAQAAAAAAAQIDBBEABSFBBhIxUSIHExQyYXGBkaEjQlJiwfDxM3KiscLR/8QAGgEAAgIDAAAAAAAAAAAAAAAAAgQDBgABBf/EACIRAAICAQQBBQAAAAAAAAAAAAABAhEhAwQFMZESQXGBof/aAAwDAQACEQMRAD8AkfI5xNRUmV0%2bQ14Wmkdi0M5PhkZjflbse3fFh5XKsZVwRPErcslbItMuttDq30H1xwtUEsUcTW5iPs22b8vvw1nvEGZ5tl%2bX5bmM5mioS3mmYePWwsx3sBYYrOvwanvYbmDxdyX7j79h6O4qDixBJUjlSoaLzkYIHKf0/ZxUcPce5tQzJTRMK2nKlUSruXhNjqjjUW7dPZiWqCaa0TIQ3KDr0IPcbjDmSU6kyVKAqR4FB1AJ7HFkSTyKubWCj4d4lzrhmR5smzOemXUyR35o5AOvMhupvrti4y7jPIczpwnE2Uvk1QWV2rcl8KGQiw54DofW15T12xzcRhpEjK3UeJvao6D4m31x6zBvN8qHxBBztr1Y9P8Af%2bWCcVJVJYImdmPDFRmOXPVZBV0fFVIpS3ojBJ0GgJeMkMpFybC%2bJPOa%2bj4eplnqqqqy8hGdaOb%2bpKFYrYI3iUk99tcSOS1FXlcqVNBPNBVxHnMkLmNi1/VuO5sLdbA3tsDyqeUDN%2bKsty3Lc5elqJKVzOKkQqszKVsoZht1aw2K3J645%2btw221Mpen468deKCU2idXlmgR%2bqNqxX7p/EP1wDLBJXZoiGzuzfeNgffjRyei81np4ezarjy9GmKJUzA8kLHrf8rC3xtgVbRS8O55WZZnVMTLExifkaxts6He4sQcPUFY7mqQVNLO9NEIZ4jeWkceKLuyHde4%2bOmFspzKKNEpZ1WJB6sl9CT%2bLtv8APGhVJJVxxcsgfNYl87T1KG3pUQ/6Hb3jGO8KV8by0qBKhQWmpwOo3ZB23K7badM6BspKZQkb1D3KnxD%2b0aL89T8RhAhjMLn1ftGPt2%2bWv0xkUObS0kawTXmpAQwHVkt0sdx7P4xrwlHhWVHRlYh2I1Buen6W9hvviRAgM9rVpMvslhJILKNwSN/cv1bcjSRhElVUj1pZGIGpuWOw/ewwfPKtqmvYBgyJ4VtqD3PxN/4thrKH9EfmUIXAI177/wDnzwOpKlg2kf/Z' /%3e%3c/svg%3e"},"path":"/blog/2018/turning-i-term-in-to-a-quake-style-terminal-on-mac-os/","tags":[{"id":"Miscellaneous","title":"Miscellaneous","path":"/blog/tag/Miscellaneous/"}]}},{"node":{"id":"40248b09a2787bc845546027d1637ae9","title":"Connection Strings in .NET Core","date":"12. March 2017","timeToRead":3,"description":"When you waste an entire hour trying to define a connection string...","cover_image":{"type":"image","mimeType":"image/jpeg","src":"/assets/static/daniel-fazio-m9LlUwkPvT8-unsplash.81b85c1.35afebc4f25c7e9c7330e686554da5af.jpg","size":{"width":770,"height":380},"sizes":"(max-width: 770px) 100vw, 770px","srcset":["/assets/static/daniel-fazio-m9LlUwkPvT8-unsplash.81b85c1.35afebc4f25c7e9c7330e686554da5af.jpg 770w"],"dataUri":"data:image/svg+xml,%3csvg fill='none' viewBox='0 0 770 380' xmlns='http://www.w3.org/2000/svg' xmlns:xlink='http://www.w3.org/1999/xlink'%3e%3cdefs%3e%3cfilter id='__svg-blur-f007f5341b6cea9aea404b0e4610fd12'%3e%3cfeGaussianBlur in='SourceGraphic' stdDeviation='10'/%3e%3c/filter%3e%3c/defs%3e%3cimage x='0' y='0' filter='url(%23__svg-blur-f007f5341b6cea9aea404b0e4610fd12)' width='770' height='380' xlink:href='data:image/jpeg%3bbase64%2c/9j/2wBDAAYEBQYFBAYGBQYHBwYIChAKCgkJChQODwwQFxQYGBcUFhYaHSUfGhsjHBYWICwgIyYnKSopGR8tMC0oMCUoKSj/2wBDAQcHBwoIChMKChMoGhYaKCgoKCgoKCgoKCgoKCgoKCgoKCgoKCgoKCgoKCgoKCgoKCgoKCgoKCgoKCgoKCgoKCj/wAARCAAgAEADASIAAhEBAxEB/8QAGgABAQADAQEAAAAAAAAAAAAABgUCAwQAB//EAC8QAAIBAwIFAwIGAwEAAAAAAAECAwQFEQAhBhITMUEiUWEUcSMyYoGRoRVDseH/xAAWAQEBAQAAAAAAAAAAAAAAAAABAgD/xAAZEQADAQEBAAAAAAAAAAAAAAAAAREhMWH/2gAMAwEAAhEDEQA/ANZt8VM8aSkMAcIHkAVh7BhgAj5GuZ5bisxSpt06pTryKkcgBkLSEL23Ckb59gdCLJQ8S1ESSUtalOSM9KUSMjfJ5gR58ffOnNuudY8f%2bFvCrDVGIFZC7YLE5LRyDcopIHuvfcaiGMENPHUtcyEju9AyySQhmZXjY8hA5snILYyP3%2bU0hFVNJNSjqQyqs8I7FmU%2btR8jGceQdtfLJTLb5LlHLT10NRUyGKc1EvVlcKTnfYKuc499z41W4NvTQ0Roo1mZTL%2bGJlJ33OzdgdiR2z7jSrNB%2bHXfhNWVvUhndIzMJT4OAB6Dk%2b4PjBzqva6oC2v6g5g5lblJ5YjJJkr77LgAd8/fWituzAOHhWp2yCyKGx75znXPJczTIeiscUkuOQs4XkOP9aDu3z477nVAUJHjoo4LbFIVqGQ1EoZskHJ9P3Af9tvbRW81stBNCIsQyMSjTFclM5wmT2B9/JxqAkXE1w4nW5WuzVNRb6ZDH25ucH8xO%2beY%2bB3wBpBdbpAYulXxT01YowwqIyp/juP3G/8AepeoVjMEv1d9dcKqmHSoKJRkSrgytsArZ98%2bPAO2kNymFZaIZ3iWKdFMybEcrocHl%2bCCdv1EaIVVPSVMwiSvVKEuZZKdIuVpG7FnO2DjbBH299JaNZ7pMsdNiGkjUJE8iZA39TY8/wDNCpThX4ppaV7vDV1MSzgwRNJGT6eYkLzN%2bkAlj99FqyrZXkqaFXp43lZcA5VSuCrD2GCDg9t9VrmtzrOLJamJ6elsqxLCRO%2bHPLnDJjODv52O/wAa9LZZFgqzQulcYojinDKp3YZAGwGf707SQbxh15voY1kjWqlYHm5OYtnJ5QB8H%2bhqra%2bEbhJfrVBXR0sNFTHpVAgkVpGfJI6oUnGdhjUXhe0Xe8cYT3Gtxz29wwgXbDb%2bjBxggZ3PbH20g4oSu4foKmss9E6dabrVX4nOXAJJCkHbGc%2bPONPTcFVbdYKGqFvpYGjp0EsjOkQYKiLlpGyNySVX7tjYDc9xhbqfizg6CYQOtXsI8t%2bXBwQM/wA47ah1nFtquEYepmkifHN0XkZDkgZ3AIZTjONcdJxM1cY6OgUfTI7HI8gAkj/zvqVbvBfD/9k=' /%3e%3c/svg%3e"},"path":"/blog/2017/connection-strings-in-net-core/","tags":[{"id":".NET Core","title":".NET Core","path":"/blog/tag/.NET%20Core/"}]}},{"node":{"id":"4318270ba8a9a4553e8d32408571f10f","title":"Dependency Injection in .NET Core","date":"11. March 2017","timeToRead":6,"description":"I think it's safe to say that there's a lot of hype around .NET Core nowadays because of it being cross-platform, open source, etc, which isn't really something we've been used to from Microsoft technologies over the years. So as someone who works in a predominantly .NET dominated environment, I wanted to dedicate some time playing around with it, building a simple API & just investigating how different it is to the regular .NET Framework.","cover_image":{"type":"image","mimeType":"image/jpeg","src":"/assets/static/emin-baycan-LV1CxYBgXqU-unsplash.81b85c1.497401f6c7385197854952368075c244.jpg","size":{"width":770,"height":380},"sizes":"(max-width: 770px) 100vw, 770px","srcset":["/assets/static/emin-baycan-LV1CxYBgXqU-unsplash.81b85c1.497401f6c7385197854952368075c244.jpg 770w"],"dataUri":"data:image/svg+xml,%3csvg fill='none' viewBox='0 0 770 380' xmlns='http://www.w3.org/2000/svg' xmlns:xlink='http://www.w3.org/1999/xlink'%3e%3cdefs%3e%3cfilter id='__svg-blur-493d5534a40d1604b66ff5f976055f0b'%3e%3cfeGaussianBlur in='SourceGraphic' stdDeviation='10'/%3e%3c/filter%3e%3c/defs%3e%3cimage x='0' y='0' filter='url(%23__svg-blur-493d5534a40d1604b66ff5f976055f0b)' width='770' height='380' xlink:href='data:image/jpeg%3bbase64%2c/9j/2wBDAAYEBQYFBAYGBQYHBwYIChAKCgkJChQODwwQFxQYGBcUFhYaHSUfGhsjHBYWICwgIyYnKSopGR8tMC0oMCUoKSj/2wBDAQcHBwoIChMKChMoGhYaKCgoKCgoKCgoKCgoKCgoKCgoKCgoKCgoKCgoKCgoKCgoKCgoKCgoKCgoKCgoKCgoKCj/wAARCAAgAEADASIAAhEBAxEB/8QAGQAAAgMBAAAAAAAAAAAAAAAABgcDBAgF/8QALhAAAQMCBAQFBAMBAAAAAAAAAQIDBAURAAYSIQcTMUEVIlFhcQgUgZEzQlKx/8QAGAEBAQEBAQAAAAAAAAAAAAAAAwQBAAL/xAAgEQACAgICAgMAAAAAAAAAAAABAgADESESMRMiYZHR/9oADAMBAAIRAxEAPwBQP6npaWyrUhrYfPfBnw/rjuV8wRKk0jmBs2cb/wBoPUYu8FchHOlZkuy1KRToxu6UmxWo9Eg9vc4fFY4X5URT1Ms03kuhP8iFq1X9eu%2bJ7bV2CMylRIneKdGcQmTFmISlQuptxJC0%2bothW8RM3jM9QaVHQpEFjotSba1Y5S8s/ZZx8LlHmRxdxK7WK0jtjuVWdEYqtPpnIVoKwtVkDQkdr/nGV0oo8pbXzNLHPECNvg5XWZuS4MZixdi6mXE9wbkg/BvhQ584k8RWqpIiRo8umMNPKTqTFvtfutQNwPbbAqmu5my9xCD1Kjfa05qSOajTZDzF9/MepI6AdDgz4g52q9WojjNPiyIMZ9YbS%2bpRKlA3uL2sL%2b37wTcyfXY%2bowrVT7fsVcvMFTTW3KnPkJkuuK1Oq5YQVfrbEcnMMCqtkJkFh69uW8AL/B6HARWXZ9IqK4rjutvqArfEb/Klw%2bc0nSsbKR6YrQlRiC2DNN/TFmOLBfqlElrSh9xznNX/AL7WI/5h7PITGXNktlakvkLVzFlQTYAeUdht0xhh15yI%2bxOjOLbVcedBsUq7G%2bCledswzYSYsisy3GDsU67XHvgLaGJIB13MVh3DPiFXkP51Q/Tii0RHLUpJ2UT1F8UUVqnO1JuS6nztN%2bXWi5Kr%2bvr74PeC3D%2bBUaJ43VWRILiymO0vdIANiojub3wyqlkWhVCmrYk06KAoGy22whSfcEY9I5qAVRkCcxVjkmJDJCW8y52a8SbCo7SSsIIuDboD%2bcEn1FphRMq0xk6m1rk3RoTskBJufa22A%2bJJXw/z1IYeBfajqLardVNncH5w0qjmjJGY8vlmtyYr8e2sJcOlxtXqnuFfGCsJNgc9RV0MCYyzrFcbnocVJMgKTYE2279sV4jfLpblx5lHBxnSjUZ%2bsPvZaMx6A0rU4uRpvc%2bmkDbpgVqTYZiFCeo3%2bcUrsQyN5n//2Q==' /%3e%3c/svg%3e"},"path":"/blog/2017/dependency-injection-in-net-core/","tags":[{"id":".NET Core","title":".NET Core","path":"/blog/tag/.NET%20Core/"}]}},{"node":{"id":"1f3f2199064b96f4e9f26ea015b1d093","title":"Removing conflicted copies on Dropbox","date":"9. March 2017","timeToRead":2,"description":"As someone who uses Dropbox on pretty much all the different gazillion devices I own, I came across a rather frustrating issue. For some reason, almost every time my Macbook Pro would try to synchronise files modified on one of my Windows devices with Dropbox, meaning the older versions still on my Macbook would need updating, I'd end up with a 'conflicted copy' version of that file being generated by Dropbox.","cover_image":{"type":"image","mimeType":"image/jpeg","src":"/assets/static/pawel-czerwinski-RkIsyD_AVvc-unsplash.81b85c1.ae0e32f4d497f5274c05f2bb7bc4b622.jpg","size":{"width":770,"height":380},"sizes":"(max-width: 770px) 100vw, 770px","srcset":["/assets/static/pawel-czerwinski-RkIsyD_AVvc-unsplash.81b85c1.ae0e32f4d497f5274c05f2bb7bc4b622.jpg 770w"],"dataUri":"data:image/svg+xml,%3csvg fill='none' viewBox='0 0 770 380' xmlns='http://www.w3.org/2000/svg' xmlns:xlink='http://www.w3.org/1999/xlink'%3e%3cdefs%3e%3cfilter id='__svg-blur-b1b2322640ebcf6cba0c931cd1be9ee9'%3e%3cfeGaussianBlur in='SourceGraphic' stdDeviation='10'/%3e%3c/filter%3e%3c/defs%3e%3cimage x='0' y='0' filter='url(%23__svg-blur-b1b2322640ebcf6cba0c931cd1be9ee9)' width='770' height='380' xlink:href='data:image/jpeg%3bbase64%2c/9j/2wBDAAYEBQYFBAYGBQYHBwYIChAKCgkJChQODwwQFxQYGBcUFhYaHSUfGhsjHBYWICwgIyYnKSopGR8tMC0oMCUoKSj/2wBDAQcHBwoIChMKChMoGhYaKCgoKCgoKCgoKCgoKCgoKCgoKCgoKCgoKCgoKCgoKCgoKCgoKCgoKCgoKCgoKCgoKCj/wAARCAAgAEADASIAAhEBAxEB/8QAGwAAAgIDAQAAAAAAAAAAAAAABQYEBwABAgP/xAAzEAACAQMCAwUFCAMAAAAAAAABAgMEBREAIQYSMRNRYYGRBxQVQXEWIjJCc6KxwdHS4f/EABYBAQEBAAAAAAAAAAAAAAAAAAUGA//EACMRAAICAgEEAgMAAAAAAAAAAAECAwQAEQUTITJBMWGBsdH/2gAMAwEAAhEDEQA/AHwRiSfkingeQjOMnP8AGpIoKhvzRfTm0r1kElFe7YtZylKmoEKgb82xO/ppjraGmS31DLDGGSJypx0PKdH8py81WZUh0QRmUNdXXb4CqeIqCllaIzhyrFSUG2R9cfTy16i/0BgEgnzk7IBknv8ATI9dUrZKaOa2o86CSRmYlm6nfWSUqJxFbERQI5EYOvyPXVdZhEVPrj51vCOPnNjkVqP4k6y6UvtFIeUs6Z6ll2HpqHNxZbRgLKxB%2beP%2b6rm70kKWWreONVkWFuVh1G2gVrpIvhtKTCjN2Y3I0BXvPIpJGUXPUY6BQQk9/wA/zL%2bpKiCrpIqiKoh7OQEqSTvg47vA6kCNGTPbwdO8/wCNJnDcxNlpdlXkQIAq42XYeej0cn3AS2MjSaEsoJwcHYBwDxzepl484atUyQjsamOo7RNsl8qFx5Zz46ers4S0VzE4AglP7G0k33hGuvXE9LfJxNFU0xiZI44yEPISRnIzvnR6uS7VdDU0skRRJ42iYrE2V5gRt476lbnGyyshTvod9n7xNZAMpXhaSOos0ckTBk52GRrVbPFHxNZ4i2JGXIHfu2ne0eziS0UHu9I1dJGGJAaLLZ9NcVXs2apu1LcJTchPTjCBYtup6jz1Z2rSS0ugvlrWCUKb1%2bTFpvEHeAr/ACrFYK2RzhRExJ0IsjiWz0rruCnXT/WcByV9DNR1HxMRSrhisAG3gfLXNF7OPcKNKeP4sUjXCjsAT640BXrtGpDZSc9ZS86tD6HvNcOVCvblWPGYyVbwPX%2bxo4JCUAyN/HUSh4QmolcRR3VFduduaIfiwB3eA1L%2bz9bgER3Qj9If66SSQAAYQsJAA3%2b8/9k=' /%3e%3c/svg%3e"},"path":"/blog/2017/removing-conflicted-copies-on-dropbox/","tags":[{"id":"Scripts","title":"Scripts","path":"/blog/tag/Scripts/"},{"id":"Miscellaneous","title":"Miscellaneous","path":"/blog/tag/Miscellaneous/"}]}}]}},"context":{}}